\relax 
\providecommand\hyper@newdestlabel[2]{}
\providecommand\BKM@entry[2]{}
\providecommand*{\memsetcounter}[2]{}
\providecommand\HyperFirstAtBeginDocument{\AtBeginDocument}
\HyperFirstAtBeginDocument{\ifx\hyper@anchor\@undefined
\global\let\oldcontentsline\contentsline
\gdef\contentsline#1#2#3#4{\oldcontentsline{#1}{#2}{#3}}
\global\let\oldnewlabel\newlabel
\gdef\newlabel#1#2{\newlabelxx{#1}#2}
\gdef\newlabelxx#1#2#3#4#5#6{\oldnewlabel{#1}{{#2}{#3}}}
\AtEndDocument{\ifx\hyper@anchor\@undefined
\let\contentsline\oldcontentsline
\let\newlabel\oldnewlabel
\fi}
\fi}
\global\let\hyper@last\relax 
\gdef\HyperFirstAtBeginDocument#1{#1}
\providecommand\HyField@AuxAddToFields[1]{}
\providecommand\HyField@AuxAddToCoFields[2]{}
\catcode `:\active 
\catcode `;\active 
\catcode `!\active 
\catcode `?\active 
\catcode `"\active 
\catcode `<\active 
\catcode `>\active 
\@nameuse{es@quoting}
\citation{abnt-url-package=url}
\@writefile{toc}{\changetocdepth  {4}}
\babel@aux{brazil}{}
\babel@aux{brazil}{}
\BKM@entry{id=1,dest={6368617074657262312E30},srcline={369}}{466F6C686120646520726F73746F}
\BKM@entry{id=2,dest={6368617074657262322E30},srcline={424}}{466F6C6861206465206170726F76615C3334375C3334336F}
\BKM@entry{id=3,dest={6368617074657262332E30},srcline={464}}{446564696361745C333633726961}
\BKM@entry{id=4,dest={6368617074657262352E30},srcline={477}}{41677261646563696D656E746F73}
\BKM@entry{id=5,dest={6368617074657262362E30},srcline={492}}{45705C3335356772616665}
\BKM@entry{id=6,dest={6368617074657262372E30},srcline={507}}{526573756D6F}
\BKM@entry{id=7,dest={6368617074657262382E30},srcline={521}}{4162737472616374}
\BKM@entry{id=8,dest={6C6F662E30},srcline={541}}{4C6973746120646520696C75737472615C3334375C3336356573}
\BKM@entry{id=9,dest={6C6F742E30},srcline={549}}{4C6973746120646520746162656C6173}
\BKM@entry{id=10,dest={636861707465726231302E30},srcline={557}}{4C69737461206465206162726576696174757261732065207369676C6173}
\BKM@entry{id=11,dest={746F632E30},srcline={596}}{53756D5C33343172696F}
\BKM@entry{id=12,dest={636861707465722E31},srcline={609}}{496E74726F64755C3334375C3334336F}
\citation{sangiorgi:2006}
\citation{murari:2002}
\citation{santos:2007}
\citation{carvalhoMONOGRAFIA:2017}
\citation{santos:2008}
\citation{cordeiro:2004}
\citation{fincher:2004}
\citation{manso:2009}
\@writefile{toc}{\contentsline {chapter}{\chapternumberline {1}Introdu\IeC {\c c}\IeC {\~a}o}{16}{chapter.1}\protected@file@percent }
\newlabel{cap:introducao}{{\M@TitleReference {1}{Introdu\IeC {\c c}\IeC {\~a}o}}{16}{Introdução}{chapter.1}{}}
\@writefile{brf}{\backcite{sangiorgi:2006}{{16}{1}{chapter.1}}}
\@writefile{brf}{\backcite{murari:2002}{{16}{1}{chapter.1}}}
\@writefile{brf}{\backcite{santos:2007}{{16}{1}{chapter.1}}}
\@writefile{brf}{\backcite{carvalhoMONOGRAFIA:2017}{{16}{1}{chapter.1}}}
\@writefile{brf}{\backcite{santos:2008}{{16}{1}{chapter.1}}}
\@writefile{brf}{\backcite{cordeiro:2004}{{16}{1}{chapter.1}}}
\@writefile{brf}{\backcite{fincher:2004}{{16}{1}{chapter.1}}}
\@writefile{brf}{\backcite{manso:2009}{{16}{1}{chapter.1}}}
\citation{cordeiro:2004}
\citation{santos:2016}
\citation{sangiorgi:2006}
\citation{carvalho:2017}
\citation{carvalhoMONOGRAFIA:2017}
\citation{carvalhoMONOGRAFIA:2017}
\citation{carvalhoMONOGRAFIA:2017}
\@writefile{brf}{\backcite{cordeiro:2004}{{17}{1}{chapter.1}}}
\@writefile{brf}{\backcite{santos:2016}{{17}{1}{chapter.1}}}
\@writefile{brf}{\backcite{sangiorgi:2006}{{17}{1}{chapter.1}}}
\@writefile{brf}{\backcite{carvalho:2017}{{17}{1}{chapter.1}}}
\@writefile{brf}{\backcite{carvalhoMONOGRAFIA:2017}{{17}{1}{chapter.1}}}
\@writefile{brf}{\backcite{carvalhoMONOGRAFIA:2017}{{17}{1}{chapter.1}}}
\@writefile{brf}{\backcite{carvalhoMONOGRAFIA:2017}{{17}{1}{chapter.1}}}
\BKM@entry{id=13,dest={636861707465722E32},srcline={613}}{5265666572656E6369616C2054655C3336337269636F}
\BKM@entry{id=14,dest={73656374696F6E2E322E31},srcline={8}}{477261666F73}
\citation{feofiloff:2013}
\citation{gersting:2004}
\@writefile{toc}{\contentsline {chapter}{\chapternumberline {2}Referencial Te\IeC {\'o}rico}{19}{chapter.2}\protected@file@percent }
\newlabel{cap:referencial}{{\M@TitleReference {2}{Referencial Te\IeC {\'o}rico}}{19}{Referencial Teórico}{chapter.2}{}}
\newlabel{sec:ref}{{\M@TitleReference {2}{Referencial Te\IeC {\'o}rico}}{19}{Referencial Teórico}{chapter.2}{}}
\@writefile{toc}{\contentsline {section}{\numberline {2.1}Grafos}{19}{section.2.1}\protected@file@percent }
\newlabel{sec:grafos}{{\M@TitleReference {2.1}{Grafos}}{19}{Grafos}{section.2.1}{}}
\@writefile{brf}{\backcite{feofiloff:2013}{{19}{2.1}{section.2.1}}}
\@writefile{brf}{\backcite{gersting:2004}{{19}{2.1}{table.caption.12}}}
\BKM@entry{id=15,dest={73656374696F6E2E322E32},srcline={61}}{44656D6F6E737472615C3334375C3334336F20656D20477261666F73}
\citation{sousa:2010}
\@writefile{lof}{\contentsline {figure}{\numberline {1}{\ignorespaces Representa\IeC {\c c}\IeC {\~a}o gr\IeC {\'a}fica do grafo completo $K_{5}$ (a) e do grafo bipartido $H$ (b).\relax }}{20}{figure.caption.11}\protected@file@percent }
\providecommand*\caption@xref[2]{\@setref\relax\@undefined{#1}}
\newlabel{figura:grafocompleto}{{\M@TitleReference {1}{Representa\IeC {\c c}\IeC {\~a}o gr\IeC {\'a}fica do grafo completo $K_{5}$ (a) e do grafo bipartido $H$ (b).\relax }}{20}{Representação gráfica do grafo completo $K_{5}$ (a) e do grafo bipartido $H$ (b).\relax }{figure.caption.11}{}}
\@writefile{lot}{\contentsline {table}{\numberline {1}{\ignorespaces Representa\IeC {\c c}\IeC {\~a}o alg\IeC {\'e}brica dos grafos $K_{5}$ e $H$ (ver Figura \ref  {figura:grafocompleto}).\relax }}{20}{table.caption.12}\protected@file@percent }
\newlabel{repAlgeK6}{{\M@TitleReference {1}{Representa\IeC {\c c}\IeC {\~a}o alg\IeC {\'e}brica dos grafos $K_{5}$ e $H$ (ver Figura \ref  {figura:grafocompleto}).\relax }}{20}{Representação algébrica dos grafos $K_{5}$ e $H$ (ver Figura \ref {figura:grafocompleto}).\relax }{table.caption.12}{}}
\citation{carvalhoMONOGRAFIA:2017}
\BKM@entry{id=16,dest={73756273656374696F6E2E322E322E31},srcline={69}}{44656D6F6E737472615C3334375C3334336F20446972657461}
\citation{menezes:2013}
\@writefile{lof}{\contentsline {figure}{\numberline {2}{\ignorespaces Representa\IeC {\c c}\IeC {\~a}o em grafo de algumas cidades no mapa do estado de Goi\IeC {\'a}s.\relax }}{21}{figure.caption.13}\protected@file@percent }
\newlabel{figura:repgrafica}{{\M@TitleReference {2}{Representa\IeC {\c c}\IeC {\~a}o em grafo de algumas cidades no mapa do estado de Goi\IeC {\'a}s.\relax }}{21}{Representação em grafo de algumas cidades no mapa do estado de Goiás.\relax }{figure.caption.13}{}}
\@writefile{toc}{\contentsline {section}{\numberline {2.2}Demonstra\IeC {\c c}\IeC {\~a}o em Grafos}{21}{section.2.2}\protected@file@percent }
\newlabel{sec:demongrafos}{{\M@TitleReference {2.2}{Demonstra\IeC {\c c}\IeC {\~a}o em Grafos}}{21}{Demonstração em Grafos}{section.2.2}{}}
\@writefile{brf}{\backcite{sousa:2010}{{21}{2.2}{section.2.2}}}
\@writefile{brf}{\backcite{carvalhoMONOGRAFIA:2017}{{21}{2.2}{section.2.2}}}
\BKM@entry{id=17,dest={73756273656374696F6E2E322E322E32},srcline={98}}{44656D6F6E737472615C3334375C3334336F20706F72204162737572646F}
\citation{mota:2011}
\citation{gersting:2004}
\@writefile{toc}{\contentsline {subsection}{\numberline {2.2.1}Demonstra\IeC {\c c}\IeC {\~a}o Direta}{22}{subsection.2.2.1}\protected@file@percent }
\newlabel{sec:demdire}{{\M@TitleReference {2.2.1}{Demonstra\IeC {\c c}\IeC {\~a}o Direta}}{22}{Demonstração Direta}{subsection.2.2.1}{}}
\@writefile{brf}{\backcite{menezes:2013}{{22}{2.2.1}{subsection.2.2.1}}}
\@writefile{toc}{\contentsline {subsection}{\numberline {2.2.2}Demonstra\IeC {\c c}\IeC {\~a}o por Absurdo}{22}{subsection.2.2.2}\protected@file@percent }
\newlabel{sec:demabs}{{\M@TitleReference {2.2.2}{Demonstra\IeC {\c c}\IeC {\~a}o por Absurdo}}{22}{Demonstração por Absurdo}{subsection.2.2.2}{}}
\@writefile{brf}{\backcite{mota:2011}{{22}{{{(ii)}}}{Item.2}}}
\@writefile{brf}{\backcite{gersting:2004}{{22}{2.2.2}{Item.2}}}
\citation{carvalhoMONOGRAFIA:2017}
\BKM@entry{id=18,dest={73756273656374696F6E2E322E322E33},srcline={145}}{44656D6F6E737472615C3334375C3334336F20706F7220496E64755C3334375C3334336F}
\citation{STEINDRYSDALEROBERTL:2005}
\citation{gersting:2004}
\@writefile{brf}{\backcite{carvalhoMONOGRAFIA:2017}{{23}{2.2.2}{Item.2}}}
\@writefile{toc}{\contentsline {subsection}{\numberline {2.2.3}Demonstra\IeC {\c c}\IeC {\~a}o por Indu\IeC {\c c}\IeC {\~a}o}{23}{subsection.2.2.3}\protected@file@percent }
\newlabel{sec:demindu}{{\M@TitleReference {2.2.3}{Demonstra\IeC {\c c}\IeC {\~a}o por Indu\IeC {\c c}\IeC {\~a}o}}{23}{Demonstração por Indução}{subsection.2.2.3}{}}
\@writefile{brf}{\backcite{STEINDRYSDALEROBERTL:2005}{{23}{2.2.3}{Item.4}}}
\citation{carvalho:2017}
\BKM@entry{id=19,dest={73656374696F6E2E322E33},srcline={217}}{556D61207669735C3334336F2072656375727369766120646120696E64755C3334375C3334336F}
\@writefile{brf}{\backcite{gersting:2004}{{24}{2.2.3}{Item.4}}}
\@writefile{brf}{\backcite{carvalho:2017}{{24}{2.2.3}{Item.4}}}
\citation{STEINDRYSDALEROBERTL:2005}
\BKM@entry{id=20,dest={73656374696F6E2E322E34},srcline={258}}{4469666963756C6461646573206E6F20656E73696E6F206520617072656E64697A6167656D2064652064656D6F6E737472615C3334375C3334336F}
\citation{nagafuchi:2009}
\citation{nasser:2004}
\@writefile{toc}{\contentsline {section}{\numberline {2.3}Uma vis\IeC {\~a}o recursiva da indu\IeC {\c c}\IeC {\~a}o}{25}{section.2.3}\protected@file@percent }
\newlabel{sec:recursivoinducao}{{\M@TitleReference {2.3}{Uma vis\IeC {\~a}o recursiva da indu\IeC {\c c}\IeC {\~a}o}}{25}{Uma visão recursiva da indução}{section.2.3}{}}
\@writefile{brf}{\backcite{STEINDRYSDALEROBERTL:2005}{{25}{{{(ii)}}}{Item.6}}}
\@writefile{lof}{\contentsline {figure}{\numberline {3}{\ignorespaces Algoritmo recursivo da Divis\IeC {\~a}o.\relax }}{25}{figure.caption.14}\protected@file@percent }
\newlabel{tabela:algoritmorec}{{\M@TitleReference {3}{Algoritmo recursivo da Divis\IeC {\~a}o.\relax }}{25}{Algoritmo recursivo da Divisão.\relax }{figure.caption.14}{}}
\@writefile{toc}{\contentsline {section}{\numberline {2.4}Dificuldades no ensino e aprendizagem de demonstra\IeC {\c c}\IeC {\~a}o}{25}{section.2.4}\protected@file@percent }
\newlabel{sec:problemanoensino}{{\M@TitleReference {2.4}{Dificuldades no ensino e aprendizagem de demonstra\IeC {\c c}\IeC {\~a}o}}{25}{Dificuldades no ensino e aprendizagem de demonstração}{section.2.4}{}}
\@writefile{brf}{\backcite{nagafuchi:2009}{{25}{2.4}{section.2.4}}}
\citation{carvalho:2004}
\BKM@entry{id=21,dest={73656374696F6E2E322E35},srcline={280}}{456E73696E6F206520417072656E64697A6167656D20646520477261666F73}
\citation{cordeiro:2004}
\citation{cordeiro:2004}
\citation{santos:2008}
\@writefile{brf}{\backcite{nasser:2004}{{26}{2.4}{section.2.4}}}
\@writefile{brf}{\backcite{carvalho:2004}{{26}{2.4}{section.2.4}}}
\@writefile{toc}{\contentsline {section}{\numberline {2.5}Ensino e Aprendizagem de Grafos}{26}{section.2.5}\protected@file@percent }
\newlabel{sec:ensinografos}{{\M@TitleReference {2.5}{Ensino e Aprendizagem de Grafos}}{26}{Ensino e Aprendizagem de Grafos}{section.2.5}{}}
\@writefile{brf}{\backcite{cordeiro:2004}{{26}{2.5}{section.2.5}}}
\@writefile{brf}{\backcite{cordeiro:2004}{{26}{2.5}{section.2.5}}}
\@writefile{brf}{\backcite{santos:2008}{{26}{2.5}{section.2.5}}}
\citation{pimentel:2003}
\BKM@entry{id=22,dest={73656374696F6E2E322E36},srcline={311}}{53697374656D61732064652056697375616C697A615C3334375C3334336F20646520416C676F7269746D6F73205C285356415C29}
\citation{schliep:2002}
\citation{schliep:2002}
\citation{manso:2009}
\citation{rebelo:2005}
\@writefile{brf}{\backcite{pimentel:2003}{{27}{2.5}{Item.11}}}
\@writefile{toc}{\contentsline {section}{\numberline {2.6}Sistemas de Visualiza\IeC {\c c}\IeC {\~a}o de Algoritmos (SVA)}{27}{section.2.6}\protected@file@percent }
\newlabel{sec:sva}{{\M@TitleReference {2.6}{Sistemas de Visualiza\IeC {\c c}\IeC {\~a}o de Algoritmos (SVA)}}{27}{Sistemas de Visualização de Algoritmos (SVA)}{section.2.6}{}}
\@writefile{brf}{\backcite{manso:2009}{{27}{2.6}{figure.caption.15}}}
\citation{garcia:1997}
\citation{santos:2016}
\citation{souza:2009}
\BKM@entry{id=23,dest={73656374696F6E2E322E37},srcline={342}}{4176616C69615C3334375C3334336F20646520535641}
\@writefile{lof}{\contentsline {figure}{\numberline {4}{\ignorespaces Captura de tela do SVA Gato.\relax }}{28}{figure.caption.15}\protected@file@percent }
\@writefile{brf}{\backcite{schliep:2002}{{28}{4}{figure.caption.15}}}
\newlabel{figura:exempava}{{\M@TitleReference {4}{Captura de tela do SVA Gato.\relax }}{28}{Captura de tela do SVA Gato.\relax }{figure.caption.15}{}}
\@writefile{brf}{\backcite{rebelo:2005}{{28}{2.6}{figure.caption.15}}}
\@writefile{brf}{\backcite{garcia:1997}{{28}{2.6}{figure.caption.15}}}
\@writefile{brf}{\backcite{santos:2016}{{28}{2.6}{figure.caption.15}}}
\@writefile{brf}{\backcite{souza:2009}{{28}{2.6}{figure.caption.15}}}
\BKM@entry{id=24,dest={73756273656374696F6E2E322E372E31},srcline={349}}{4D5C33353174726963617320706172612047616E686F20646520417072656E64697A6167656D}
\BKM@entry{id=25,dest={73756273756273656374696F6E2E322E372E312E31},srcline={353}}{4D5C333531747269636120706172612047616E686F20646520417072656E64697A6167656D204162736F6C757461}
\@writefile{toc}{\contentsline {section}{\numberline {2.7}Avalia\IeC {\c c}\IeC {\~a}o de SVA}{29}{section.2.7}\protected@file@percent }
\newlabel{sec:avaliacaodesva}{{\M@TitleReference {2.7}{Avalia\IeC {\c c}\IeC {\~a}o de SVA}}{29}{Avaliação de SVA}{section.2.7}{}}
\@writefile{toc}{\contentsline {subsection}{\numberline {2.7.1}M\IeC {\'e}tricas para Ganho de Aprendizagem}{29}{subsection.2.7.1}\protected@file@percent }
\newlabel{subsec:metricas}{{\M@TitleReference {2.7.1}{M\IeC {\'e}tricas para Ganho de Aprendizagem}}{29}{Métricas para Ganho de Aprendizagem}{subsection.2.7.1}{}}
\@writefile{toc}{\contentsline {subsubsection}{\numberline {2.7.1.1}M\IeC {\'e}trica para Ganho de Aprendizagem Absoluta}{29}{subsubsection.2.7.1.1}\protected@file@percent }
\newlabel{subsec:metabs}{{\M@TitleReference {2.7.1.1}{M\IeC {\'e}trica para Ganho de Aprendizagem Absoluta}}{29}{Métrica para Ganho de Aprendizagem Absoluta}{subsubsection.2.7.1.1}{}}
\newlabel{func:acerta}{{2.2}{29}{Métrica para Ganho de Aprendizagem Absoluta}{equation.2.7.2}{}}
\newlabel{func:qtdcorretas}{{2.3}{29}{Métrica para Ganho de Aprendizagem Absoluta}{equation.2.7.3}{}}
\newlabel{func:percCorretas}{{2.4}{29}{Métrica para Ganho de Aprendizagem Absoluta}{equation.2.7.4}{}}
\BKM@entry{id=26,dest={73756273756273656374696F6E2E322E372E312E32},srcline={385}}{4D5C333531747269636120706172612047616E686F20646520417072656E64697A6167656D204E6F726D616C697A61646F}
\citation{hake:1998}
\BKM@entry{id=27,dest={73756273656374696F6E2E322E372E32},srcline={407}}{4173706563746F732064652055736162696C6964616465}
\citation{gladcheff:2001}
\@writefile{toc}{\contentsline {subsubsection}{\numberline {2.7.1.2}M\IeC {\'e}trica para Ganho de Aprendizagem Normalizado}{30}{subsubsection.2.7.1.2}\protected@file@percent }
\newlabel{subsec:metnorm}{{\M@TitleReference {2.7.1.2}{M\IeC {\'e}trica para Ganho de Aprendizagem Normalizado}}{30}{Métrica para Ganho de Aprendizagem Normalizado}{subsubsection.2.7.1.2}{}}
\@writefile{brf}{\backcite{hake:1998}{{30}{2.7.1.2}{subsubsection.2.7.1.2}}}
\@writefile{toc}{\contentsline {subsection}{\numberline {2.7.2}Aspectos de Usabilidade}{30}{subsection.2.7.2}\protected@file@percent }
\newlabel{sec:aspusabilidade}{{\M@TitleReference {2.7.2}{Aspectos de Usabilidade}}{30}{Aspectos de Usabilidade}{subsection.2.7.2}{}}
\@writefile{brf}{\backcite{gladcheff:2001}{{30}{2.7.2}{subsection.2.7.2}}}
\citation{soares:2004}
\citation{santos:2008}
\citation{manso:2009}
\citation{carvalhoMONOGRAFIA:2017}
\BKM@entry{id=28,dest={73656374696F6E2E322E38},srcline={434}}{5465737465732045737461745C333535737469636F73}
\@writefile{lof}{\contentsline {figure}{\numberline {5}{\ignorespaces Exemplo gr\IeC {\'a}fico ilustrando o GAA e GAN.\relax }}{31}{figure.caption.16}\protected@file@percent }
\newlabel{figura:exemganhonormalizado}{{\M@TitleReference {5}{Exemplo gr\IeC {\'a}fico ilustrando o GAA e GAN.\relax }}{31}{Exemplo gráfico ilustrando o GAA e GAN.\relax }{figure.caption.16}{}}
\@writefile{brf}{\backcite{soares:2004, santos:2008, manso:2009, carvalhoMONOGRAFIA:2017}{{31}{2.7.2}{Item.16}}}
\@writefile{brf}{\backcite{soares:2004, santos:2008, manso:2009, carvalhoMONOGRAFIA:2017}{{31}{2.7.2}{Item.16}}}
\@writefile{brf}{\backcite{soares:2004, santos:2008, manso:2009, carvalhoMONOGRAFIA:2017}{{31}{2.7.2}{Item.16}}}
\@writefile{brf}{\backcite{soares:2004, santos:2008, manso:2009, carvalhoMONOGRAFIA:2017}{{31}{2.7.2}{Item.16}}}
\@writefile{toc}{\contentsline {section}{\numberline {2.8}Testes Estat\IeC {\'\i }sticos}{31}{section.2.8}\protected@file@percent }
\newlabel{sec:test_t}{{\M@TitleReference {2.8}{Testes Estat\IeC {\'\i }sticos}}{31}{Testes Estatísticos}{section.2.8}{}}
\citation{maroco:2007}
\citation{maroco:2007}
\@writefile{lof}{\contentsline {figure}{\numberline {6}{\ignorespaces Fluxograma do procedimento para execu\IeC {\c c}\IeC {\~a}o do teste \textit  {t} pareado.\relax }}{32}{figure.caption.17}\protected@file@percent }
\newlabel{figura:testestatisticofluxograma}{{\M@TitleReference {6}{Fluxograma do procedimento para execu\IeC {\c c}\IeC {\~a}o do teste \textit  {t} pareado.\relax }}{32}{Fluxograma do procedimento para execução do teste \textit {t} pareado.\relax }{figure.caption.17}{}}
\@writefile{brf}{\backcite{maroco:2007}{{32}{2.8}{figure.caption.17}}}
\citation{maroco:2007}
\citation{maroco:2007}
\citation{maroco:2007}
\citation{maroco:2007}
\@writefile{brf}{\backcite{maroco:2007}{{33}{2.8}{figure.caption.17}}}
\@writefile{brf}{\backcite{maroco:2007}{{33}{2.8}{figure.caption.17}}}
\@writefile{brf}{\backcite{maroco:2007}{{33}{2.8}{figure.caption.17}}}
\@writefile{brf}{\backcite{maroco:2007}{{33}{2.8}{figure.caption.17}}}
\@writefile{brf}{\backcite{maroco:2007}{{33}{2.8}{figure.caption.17}}}
\BKM@entry{id=29,dest={636861707465722E33},srcline={616}}{54726162616C686F732072656C6163696F6E61646F73}
\BKM@entry{id=30,dest={73656374696F6E2E332E31},srcline={19}}{4C6576616E74616D656E746F2064652054726162616C686F73}
\BKM@entry{id=31,dest={73756273656374696F6E2E332E312E31},srcline={23}}{50616C61767261732D636861766573206520537472696E6773206465204275736361}
\@writefile{toc}{\contentsline {chapter}{\chapternumberline {3}Trabalhos relacionados}{34}{chapter.3}\protected@file@percent }
\newlabel{cap:relacionados}{{\M@TitleReference {3}{Trabalhos relacionados}}{34}{Trabalhos relacionados}{chapter.3}{}}
\newlabel{sec:trabrela}{{\M@TitleReference {3}{Trabalhos relacionados}}{34}{Trabalhos relacionados}{chapter.3}{}}
\@writefile{toc}{\contentsline {section}{\numberline {3.1}Levantamento de Trabalhos}{34}{section.3.1}\protected@file@percent }
\newlabel{sec:levtrab}{{\M@TitleReference {3.1}{Levantamento de Trabalhos}}{34}{Levantamento de Trabalhos}{section.3.1}{}}
\@writefile{toc}{\contentsline {subsection}{\numberline {3.1.1}Palavras-chaves e Strings de Busca}{34}{subsection.3.1.1}\protected@file@percent }
\newlabel{subsec:stringbusca}{{\M@TitleReference {3.1.1}{Palavras-chaves e Strings de Busca}}{34}{Palavras-chaves e Strings de Busca}{subsection.3.1.1}{}}
\BKM@entry{id=32,dest={73756273656374696F6E2E332E312E32},srcline={45}}{437269745C33353172696F7320646520496E636C75735C3334336F2065204578636C75735C3334336F}
\BKM@entry{id=33,dest={73756273656374696F6E2E332E312E33},srcline={53}}{4173706563746F73207061726120416E5C3334316C69736520646F732054726162616C686F73}
\@writefile{toc}{\contentsline {subsection}{\numberline {3.1.2}Crit\IeC {\'e}rios de Inclus\IeC {\~a}o e Exclus\IeC {\~a}o}{35}{subsection.3.1.2}\protected@file@percent }
\newlabel{subsec:criteriosincexc}{{\M@TitleReference {3.1.2}{Crit\IeC {\'e}rios de Inclus\IeC {\~a}o e Exclus\IeC {\~a}o}}{35}{Critérios de Inclusão e Exclusão}{subsection.3.1.2}{}}
\@writefile{toc}{\contentsline {subsection}{\numberline {3.1.3}Aspectos para An\IeC {\'a}lise dos Trabalhos}{35}{subsection.3.1.3}\protected@file@percent }
\newlabel{subsec:aspectos}{{\M@TitleReference {3.1.3}{Aspectos para An\IeC {\'a}lise dos Trabalhos}}{35}{Aspectos para Análise dos Trabalhos}{subsection.3.1.3}{}}
\citation{hexsel:2002}
\BKM@entry{id=34,dest={73656374696F6E2E332E32},srcline={72}}{416E5C3334316C69736520646F732054726162616C686F732052656C6163696F6E61646F73}
\citation{lozada:2014}
\citation{lozada:2014}
\citation{lozada:2014}
\citation{picoli2019proposta}
\@writefile{brf}{\backcite{hexsel:2002}{{36}{3.1.3}{subsection.3.1.3}}}
\@writefile{toc}{\contentsline {section}{\numberline {3.2}An\IeC {\'a}lise dos Trabalhos Relacionados}{36}{section.3.2}\protected@file@percent }
\newlabel{sec:analisetrabrel}{{\M@TitleReference {3.2}{An\IeC {\'a}lise dos Trabalhos Relacionados}}{36}{Análise dos Trabalhos Relacionados}{section.3.2}{}}
\@writefile{brf}{\backcite{lozada:2014}{{36}{3.2}{section.3.2}}}
\citation{picoli2019proposta}
\citation{picoli2019proposta}
\citation{bernardes2016furb}
\citation{bernardes2016furb}
\citation{bernardes2016furb}
\citation{carvalhoMONOGRAFIA:2017}
\@writefile{lof}{\contentsline {figure}{\numberline {7}{\ignorespaces Captura de tela do A-\textit  {Graph} - Grafo resultante ap\IeC {\'o}s a Busca em Profundidade.\relax }}{37}{figure.caption.18}\protected@file@percent }
\newlabel{figura:agraph}{{\M@TitleReference {7}{Captura de tela do A-\textit  {Graph} - Grafo resultante ap\IeC {\'o}s a Busca em Profundidade.\relax }}{37}{Captura de tela do A-\textit {Graph} - Grafo resultante após a Busca em Profundidade.\relax }{figure.caption.18}{}}
\@writefile{brf}{\backcite{lozada:2014}{{37}{7}{figure.caption.18}}}
\@writefile{brf}{\backcite{picoli2019proposta}{{37}{3.2}{figure.caption.18}}}
\@writefile{brf}{\backcite{bernardes2016furb}{{37}{3.2}{figure.caption.19}}}
\@writefile{brf}{\backcite{carvalhoMONOGRAFIA:2017}{{37}{3.2}{figure.caption.20}}}
\citation{carvalhoMONOGRAFIA:2017}
\citation{carvalhoMONOGRAFIA:2017}
\citation{lozada:2014}
\citation{bernardes2016furb}
\citation{picoli2019proposta}
\citation{carvalhoMONOGRAFIA:2017}
\@writefile{lof}{\contentsline {figure}{\numberline {8}{\ignorespaces Captura da tela do \textit  {Easy}Grafos - modo de execu\IeC {\c c}\IeC {\~a}o.\relax }}{38}{figure.caption.19}\protected@file@percent }
\@writefile{brf}{\backcite{picoli2019proposta}{{38}{8}{figure.caption.19}}}
\newlabel{figura:easygrafos}{{\M@TitleReference {8}{Captura da tela do \textit  {Easy}Grafos - modo de execu\IeC {\c c}\IeC {\~a}o.\relax }}{38}{Captura da tela do \textit {Easy}Grafos - modo de execução.\relax }{figure.caption.19}{}}
\@writefile{lot}{\contentsline {table}{\numberline {2}{\ignorespaces Tabela comparativa dos trabalhos relacionados, utilizando os cinco aspectos escolhidos (A1 a A5).\relax }}{38}{table.caption.22}\protected@file@percent }
\@writefile{brf}{\backcite{lozada:2014}{{38}{2}{table.caption.22}}}
\@writefile{brf}{\backcite{bernardes2016furb}{{38}{2}{table.caption.22}}}
\@writefile{brf}{\backcite{picoli2019proposta}{{38}{2}{table.caption.22}}}
\@writefile{brf}{\backcite{carvalhoMONOGRAFIA:2017}{{38}{2}{table.caption.22}}}
\newlabel{tab:analise}{{\M@TitleReference {2}{Tabela comparativa dos trabalhos relacionados, utilizando os cinco aspectos escolhidos (A1 a A5).\relax }}{38}{Tabela comparativa dos trabalhos relacionados, utilizando os cinco aspectos escolhidos (A1 a A5).\relax }{table.caption.22}{}}
\@writefile{lof}{\contentsline {figure}{\numberline {9}{\ignorespaces Captura da tela do Furb \textit  {Graphs} - ferramenta durante a navega\IeC {\c c}\IeC {\~a}o.\relax }}{39}{figure.caption.20}\protected@file@percent }
\@writefile{brf}{\backcite{bernardes2016furb}{{39}{9}{figure.caption.20}}}
\newlabel{figura:furbgraphs}{{\M@TitleReference {9}{Captura da tela do Furb \textit  {Graphs} - ferramenta durante a navega\IeC {\c c}\IeC {\~a}o.\relax }}{39}{Captura da tela do Furb \textit {Graphs} - ferramenta durante a navegação.\relax }{figure.caption.20}{}}
\@writefile{lof}{\contentsline {figure}{\numberline {10}{\ignorespaces \textit  {GraphViewer}: Captura de tela na simula\IeC {\c c}\IeC {\~a}o do pseudoc\IeC {\'o}digo do Teorema \ref  {Teorema1}.\relax }}{39}{figure.caption.21}\protected@file@percent }
\@writefile{brf}{\backcite{carvalhoMONOGRAFIA:2017}{{39}{10}{figure.caption.21}}}
\newlabel{figura:execgraphvie}{{\M@TitleReference {10}{\textit  {GraphViewer}: Captura de tela na simula\IeC {\c c}\IeC {\~a}o do pseudoc\IeC {\'o}digo do Teorema \ref  {Teorema1}.\relax }}{39}{\textit {GraphViewer}: Captura de tela na simulação do pseudocódigo do Teorema \ref {Teorema1}.\relax }{figure.caption.21}{}}
\BKM@entry{id=35,dest={636861707465722E34},srcline={619}}{535641204772617068566965776572}
\BKM@entry{id=36,dest={73656374696F6E2E342E31},srcline={9}}{4772617068566965776572}
\@writefile{toc}{\contentsline {chapter}{\chapternumberline {4}SVA \textit  {GraphViewer}}{40}{chapter.4}\protected@file@percent }
\newlabel{cap:funcionamento}{{\M@TitleReference {4}{SVA \textit  {GraphViewer}}}{40}{SVA \textit {GraphViewer}}{chapter.4}{}}
\@writefile{toc}{\contentsline {section}{\numberline {4.1}\textit  {GraphViewer}}{40}{section.4.1}\protected@file@percent }
\newlabel{sec:graphviewer}{{\M@TitleReference {4.1}{\textit  {GraphViewer}}}{40}{\textit {GraphViewer}}{section.4.1}{}}
\@writefile{lof}{\contentsline {figure}{\numberline {11}{\ignorespaces Captura da tela inicial do SVA \textit  {GraphViewer}.\relax }}{40}{figure.caption.23}\protected@file@percent }
\newlabel{figura:gvtelaini}{{\M@TitleReference {11}{Captura da tela inicial do SVA \textit  {GraphViewer}.\relax }}{40}{Captura da tela inicial do SVA \textit {GraphViewer}.\relax }{figure.caption.23}{}}
\@writefile{lof}{\contentsline {figure}{\numberline {12}{\ignorespaces Captura da tela inicial do SVA \textit  {GraphViewer}, com destaque no menu lateral.\relax }}{40}{figure.caption.24}\protected@file@percent }
\newlabel{figura:gvtelainimenu}{{\M@TitleReference {12}{Captura da tela inicial do SVA \textit  {GraphViewer}, com destaque no menu lateral.\relax }}{40}{Captura da tela inicial do SVA \textit {GraphViewer}, com destaque no menu lateral.\relax }{figure.caption.24}{}}
\@writefile{lof}{\contentsline {figure}{\numberline {13}{\ignorespaces Ilustra\IeC {\c c}\IeC {\~a}o dos passos que ser\IeC {\~a}o executados.\relax }}{41}{figure.caption.25}\protected@file@percent }
\newlabel{figura:passosaexecutar}{{\M@TitleReference {13}{Ilustra\IeC {\c c}\IeC {\~a}o dos passos que ser\IeC {\~a}o executados.\relax }}{41}{Ilustração dos passos que serão executados.\relax }{figure.caption.25}{}}
\@writefile{lof}{\contentsline {figure}{\numberline {14}{\ignorespaces Captura da tela inicial do SVA \textit  {GraphViewer}, com destaques nos botoes ``Use agora''.\relax }}{41}{figure.caption.26}\protected@file@percent }
\newlabel{figura:gvtelainiuseagr}{{\M@TitleReference {14}{Captura da tela inicial do SVA \textit  {GraphViewer}, com destaques nos botoes ``Use agora''.\relax }}{41}{Captura da tela inicial do SVA \textit {GraphViewer}, com destaques nos botoes ``Use agora''.\relax }{figure.caption.26}{}}
\@writefile{lof}{\contentsline {figure}{\numberline {15}{\ignorespaces Captura da tela de op\IeC {\c c}\IeC {\~o}es da escolha dos Teoremas.\relax }}{42}{figure.caption.27}\protected@file@percent }
\newlabel{figura:gvtelateoremas}{{\M@TitleReference {15}{Captura da tela de op\IeC {\c c}\IeC {\~o}es da escolha dos Teoremas.\relax }}{42}{Captura da tela de opções da escolha dos Teoremas.\relax }{figure.caption.27}{}}
\@writefile{lof}{\contentsline {figure}{\numberline {16}{\ignorespaces Captura da tela de escolha do estilo de grafo e quantidade de v\IeC {\'e}rtices do grafo escolhido.\relax }}{42}{figure.caption.28}\protected@file@percent }
\newlabel{figura:gvtelagrafo}{{\M@TitleReference {16}{Captura da tela de escolha do estilo de grafo e quantidade de v\IeC {\'e}rtices do grafo escolhido.\relax }}{42}{Captura da tela de escolha do estilo de grafo e quantidade de vértices do grafo escolhido.\relax }{figure.caption.28}{}}
\@writefile{lof}{\contentsline {figure}{\numberline {17}{\ignorespaces Captura da tela de confirma\IeC {\c c}\IeC {\~a}o dos dados escolhidos e gera\IeC {\c c}\IeC {\~a}o da anima\IeC {\c c}\IeC {\~a}o.\relax }}{43}{figure.caption.29}\protected@file@percent }
\newlabel{figura:gvtelaconfirmacao}{{\M@TitleReference {17}{Captura da tela de confirma\IeC {\c c}\IeC {\~a}o dos dados escolhidos e gera\IeC {\c c}\IeC {\~a}o da anima\IeC {\c c}\IeC {\~a}o.\relax }}{43}{Captura da tela de confirmação dos dados escolhidos e geração da animação.\relax }{figure.caption.29}{}}
\@writefile{lof}{\contentsline {figure}{\numberline {18}{\ignorespaces Captura da tela do pseudoc\IeC {\'o}digo em rela\IeC {\c c}\IeC {\~a}o ao teorema escolhido, com destaques para as abas.\relax }}{43}{figure.caption.30}\protected@file@percent }
\newlabel{figura:gvtelapseudocodigo}{{\M@TitleReference {18}{Captura da tela do pseudoc\IeC {\'o}digo em rela\IeC {\c c}\IeC {\~a}o ao teorema escolhido, com destaques para as abas.\relax }}{43}{Captura da tela do pseudocódigo em relação ao teorema escolhido, com destaques para as abas.\relax }{figure.caption.30}{}}
\@writefile{lof}{\contentsline {figure}{\numberline {19}{\ignorespaces  Captura da tela da demonstra\IeC {\c c}\IeC {\~a}o por indu\IeC {\c c}\IeC {\~a}o em rela\IeC {\c c}\IeC {\~a}o ao teorema escolhido, com destaque para a aba de Demonstra\IeC {\c c}\IeC {\~a}o.\relax }}{44}{figure.caption.31}\protected@file@percent }
\newlabel{figura:gvtelademonstracao}{{\M@TitleReference {19}{ Captura da tela da demonstra\IeC {\c c}\IeC {\~a}o por indu\IeC {\c c}\IeC {\~a}o em rela\IeC {\c c}\IeC {\~a}o ao teorema escolhido, com destaque para a aba de Demonstra\IeC {\c c}\IeC {\~a}o.\relax }}{44}{Captura da tela da demonstração por indução em relação ao teorema escolhido, com destaque para a aba de Demonstração.\relax }{figure.caption.31}{}}
\@writefile{lof}{\contentsline {figure}{\numberline {20}{\ignorespaces Captura da tela de execu\IeC {\c c}\IeC {\~a}o passo-a-passo do pseudoc\IeC {\'o}digo do Teorema \ref  {Teorema2}, destaque para a linha 1 do pseudoc\IeC {\'o}digo.\relax }}{44}{figure.caption.32}\protected@file@percent }
\newlabel{figura:gvtelageraranimacao1}{{\M@TitleReference {20}{Captura da tela de execu\IeC {\c c}\IeC {\~a}o passo-a-passo do pseudoc\IeC {\'o}digo do Teorema \ref  {Teorema2}, destaque para a linha 1 do pseudoc\IeC {\'o}digo.\relax }}{44}{Captura da tela de execução passo-a-passo do pseudocódigo do Teorema \ref {Teorema2}, destaque para a linha 1 do pseudocódigo.\relax }{figure.caption.32}{}}
\@writefile{lof}{\contentsline {figure}{\numberline {21}{\ignorespaces Captura da tela de execu\IeC {\c c}\IeC {\~a}o passo-a-passo do pseudoc\IeC {\'o}digo do Teorema \ref  {Teorema2}.\relax }}{45}{figure.caption.33}\protected@file@percent }
\newlabel{figura:gvtelageraranimacao2}{{\M@TitleReference {21}{Captura da tela de execu\IeC {\c c}\IeC {\~a}o passo-a-passo do pseudoc\IeC {\'o}digo do Teorema \ref  {Teorema2}.\relax }}{45}{Captura da tela de execução passo-a-passo do pseudocódigo do Teorema \ref {Teorema2}.\relax }{figure.caption.33}{}}
\@writefile{lof}{\contentsline {figure}{\numberline {22}{\ignorespaces Captura da tela de execu\IeC {\c c}\IeC {\~a}o passo-a-passo do pseudoc\IeC {\'o}digo do Teorema \ref  {Teorema2}.\relax }}{45}{figure.caption.34}\protected@file@percent }
\newlabel{figura:gvtelageraranimacao3}{{\M@TitleReference {22}{Captura da tela de execu\IeC {\c c}\IeC {\~a}o passo-a-passo do pseudoc\IeC {\'o}digo do Teorema \ref  {Teorema2}.\relax }}{45}{Captura da tela de execução passo-a-passo do pseudocódigo do Teorema \ref {Teorema2}.\relax }{figure.caption.34}{}}
\@writefile{lof}{\contentsline {figure}{\numberline {23}{\ignorespaces Captura da tela de execu\IeC {\c c}\IeC {\~a}o passo-a-passo do pseudoc\IeC {\'o}digo do Teorema \ref  {Teorema2}.\relax }}{46}{figure.caption.35}\protected@file@percent }
\newlabel{figura:gvtelageraranimacao4}{{\M@TitleReference {23}{Captura da tela de execu\IeC {\c c}\IeC {\~a}o passo-a-passo do pseudoc\IeC {\'o}digo do Teorema \ref  {Teorema2}.\relax }}{46}{Captura da tela de execução passo-a-passo do pseudocódigo do Teorema \ref {Teorema2}.\relax }{figure.caption.35}{}}
\@writefile{lof}{\contentsline {figure}{\numberline {24}{\ignorespaces Captura da tela de execu\IeC {\c c}\IeC {\~a}o passo-a-passo do pseudoc\IeC {\'o}digo do Teorema \ref  {Teorema2}.\relax }}{46}{figure.caption.36}\protected@file@percent }
\newlabel{figura:gvtelageraranimacao5}{{\M@TitleReference {24}{Captura da tela de execu\IeC {\c c}\IeC {\~a}o passo-a-passo do pseudoc\IeC {\'o}digo do Teorema \ref  {Teorema2}.\relax }}{46}{Captura da tela de execução passo-a-passo do pseudocódigo do Teorema \ref {Teorema2}.\relax }{figure.caption.36}{}}
\@writefile{lof}{\contentsline {figure}{\numberline {25}{\ignorespaces Captura da tela de execu\IeC {\c c}\IeC {\~a}o passo-a-passo do pseudoc\IeC {\'o}digo do Teorema \ref  {Teorema2}.\relax }}{47}{figure.caption.37}\protected@file@percent }
\newlabel{figura:gvtelageraranimacao6}{{\M@TitleReference {25}{Captura da tela de execu\IeC {\c c}\IeC {\~a}o passo-a-passo do pseudoc\IeC {\'o}digo do Teorema \ref  {Teorema2}.\relax }}{47}{Captura da tela de execução passo-a-passo do pseudocódigo do Teorema \ref {Teorema2}.\relax }{figure.caption.37}{}}
\@writefile{lof}{\contentsline {figure}{\numberline {26}{\ignorespaces Captura da tela de execu\IeC {\c c}\IeC {\~a}o passo-a-passo do pseudoc\IeC {\'o}digo do Teorema \ref  {Teorema2}.\relax }}{47}{figure.caption.38}\protected@file@percent }
\newlabel{figura:gvtelageraranimacao7}{{\M@TitleReference {26}{Captura da tela de execu\IeC {\c c}\IeC {\~a}o passo-a-passo do pseudoc\IeC {\'o}digo do Teorema \ref  {Teorema2}.\relax }}{47}{Captura da tela de execução passo-a-passo do pseudocódigo do Teorema \ref {Teorema2}.\relax }{figure.caption.38}{}}
\@writefile{lof}{\contentsline {figure}{\numberline {27}{\ignorespaces Captura da tela do resultado final ap\IeC {\'o}s executado o processo por completo.\relax }}{48}{figure.caption.39}\protected@file@percent }
\newlabel{figura:gvtelaresultadofinal}{{\M@TitleReference {27}{Captura da tela do resultado final ap\IeC {\'o}s executado o processo por completo.\relax }}{48}{Captura da tela do resultado final após executado o processo por completo.\relax }{figure.caption.39}{}}
\BKM@entry{id=37,dest={636861707465722E35},srcline={622}}{4D65746F646F6C6F676961}
\citation{marconilakatos2003}
\@writefile{toc}{\contentsline {chapter}{\chapternumberline {5}Metodologia}{49}{chapter.5}\protected@file@percent }
\newlabel{sec:metodologia}{{\M@TitleReference {5}{Metodologia}}{49}{Metodologia}{chapter.5}{}}
\@writefile{lof}{\contentsline {figure}{\numberline {28}{\ignorespaces Ilustra\IeC {\c c}\IeC {\~a}o do experimento realizado.\relax }}{49}{figure.caption.40}\protected@file@percent }
\newlabel{figura:experimento}{{\M@TitleReference {28}{Ilustra\IeC {\c c}\IeC {\~a}o do experimento realizado.\relax }}{49}{Ilustração do experimento realizado.\relax }{figure.caption.40}{}}
\@writefile{brf}{\backcite{marconilakatos2003}{{49}{5}{figure.caption.40}}}
\citation{nemoto2014likert}
\@writefile{lof}{\contentsline {figure}{\numberline {29}{\ignorespaces Ilustra\IeC {\c c}\IeC {\~a}o da divis\IeC {\~a}o dos subexperimentos.\relax }}{50}{figure.caption.41}\protected@file@percent }
\newlabel{figura:subexperimento}{{\M@TitleReference {29}{Ilustra\IeC {\c c}\IeC {\~a}o da divis\IeC {\~a}o dos subexperimentos.\relax }}{50}{Ilustração da divisão dos subexperimentos.\relax }{figure.caption.41}{}}
\@writefile{brf}{\backcite{nemoto2014likert}{{50}{5}{figure.caption.41}}}
\BKM@entry{id=38,dest={73656374696F6E2E352E31},srcline={114}}{506172616469676D612047514D}
\citation{solingen2002}
\citation{sommerville2010}
\citation{gladcheff:2001}
\citation{machado2016}
\citation{carvalhoMONOGRAFIA:2017}
\@writefile{toc}{\contentsline {section}{\numberline {5.1}Paradigma GQM}{51}{section.5.1}\protected@file@percent }
\newlabel{sec:paraGQM}{{\M@TitleReference {5.1}{Paradigma GQM}}{51}{Paradigma GQM}{section.5.1}{}}
\@writefile{brf}{\backcite{solingen2002}{{51}{5.1}{section.5.1}}}
\@writefile{brf}{\backcite{sommerville2010}{{51}{5.1}{section.5.1}}}
\BKM@entry{id=39,dest={73656374696F6E2E352E32},srcline={166}}{457370656369666963615C3334375C333635657320646F2047514D}
\@writefile{brf}{\backcite{gladcheff:2001, machado2016, carvalhoMONOGRAFIA:2017}{{52}{5.1}{section.5.1}}}
\@writefile{brf}{\backcite{gladcheff:2001, machado2016, carvalhoMONOGRAFIA:2017}{{52}{5.1}{section.5.1}}}
\@writefile{brf}{\backcite{gladcheff:2001, machado2016, carvalhoMONOGRAFIA:2017}{{52}{5.1}{section.5.1}}}
\@writefile{toc}{\contentsline {section}{\numberline {5.2}Especifica\IeC {\c c}\IeC {\~o}es do GQM}{52}{section.5.2}\protected@file@percent }
\newlabel{sec:espGQM}{{\M@TitleReference {5.2}{Especifica\IeC {\c c}\IeC {\~o}es do GQM}}{52}{Especificações do GQM}{section.5.2}{}}
\BKM@entry{id=40,dest={636861707465722E36},srcline={630}}{526573756C7461646F73}
\BKM@entry{id=41,dest={73656374696F6E2E362E31},srcline={24}}{526573756C7461646F73205375626578706572696D656E746F2031}
\BKM@entry{id=42,dest={73756273656374696F6E2E362E312E31},srcline={28}}{4465736372695C3334375C3334336F20536F63696F616361645C3335326D696361}
\@writefile{toc}{\contentsline {chapter}{\chapternumberline {6}Resultados}{53}{chapter.6}\protected@file@percent }
\newlabel{cap:resultados}{{\M@TitleReference {6}{Resultados}}{53}{Resultados}{chapter.6}{}}
\@writefile{toc}{\contentsline {section}{\numberline {6.1}Resultados Subexperimento 1}{53}{section.6.1}\protected@file@percent }
\newlabel{sec:resulta}{{\M@TitleReference {6.1}{Resultados Subexperimento 1}}{53}{Resultados Subexperimento 1}{section.6.1}{}}
\@writefile{toc}{\contentsline {subsection}{\numberline {6.1.1}Descri\IeC {\c c}\IeC {\~a}o Socioacad\IeC {\^e}mica}{53}{subsection.6.1.1}\protected@file@percent }
\newlabel{distribuicaoParticipantesA}{{\M@TitleReference {6.1.1}{Descri\IeC {\c c}\IeC {\~a}o Socioacad\IeC {\^e}mica}}{53}{Descrição Socioacadêmica}{subsection.6.1.1}{}}
\@writefile{lof}{\contentsline {figure}{\numberline {30}{\ignorespaces Representa\IeC {\c c}\IeC {\~a}o gr\IeC {\'a}fica do ano de ingresso dos participantes do Subexperimento 1.\relax }}{54}{figure.caption.42}\protected@file@percent }
\newlabel{figura:anodeingresso}{{\M@TitleReference {30}{Representa\IeC {\c c}\IeC {\~a}o gr\IeC {\'a}fica do ano de ingresso dos participantes do Subexperimento 1.\relax }}{54}{Representação gráfica do ano de ingresso dos participantes do Subexperimento 1.\relax }{figure.caption.42}{}}
\BKM@entry{id=43,dest={73756273656374696F6E2E362E312E32},srcline={94}}{416E5C3334316C69736520646F7320526573756C7461646F7320646F205375626578706572696D656E746F2031}
\@writefile{lof}{\contentsline {figure}{\numberline {31}{\ignorespaces Representa\IeC {\c c}\IeC {\~a}o gr\IeC {\'a}fica da cor/ra\IeC {\c c}a dos participantes do Subexperimento 1.\relax }}{55}{figure.caption.43}\protected@file@percent }
\newlabel{figura:courouracao}{{\M@TitleReference {31}{Representa\IeC {\c c}\IeC {\~a}o gr\IeC {\'a}fica da cor/ra\IeC {\c c}a dos participantes do Subexperimento 1.\relax }}{55}{Representação gráfica da cor/raça dos participantes do Subexperimento 1.\relax }{figure.caption.43}{}}
\@writefile{lof}{\contentsline {figure}{\numberline {32}{\ignorespaces Representa\IeC {\c c}\IeC {\~a}o gr\IeC {\'a}fica da idade dos participantes do Subexperimento 1.\relax }}{55}{figure.caption.44}\protected@file@percent }
\newlabel{figura:idade}{{\M@TitleReference {32}{Representa\IeC {\c c}\IeC {\~a}o gr\IeC {\'a}fica da idade dos participantes do Subexperimento 1.\relax }}{55}{Representação gráfica da idade dos participantes do Subexperimento 1.\relax }{figure.caption.44}{}}
\@writefile{toc}{\contentsline {subsection}{\numberline {6.1.2}An\IeC {\'a}lise dos Resultados do Subexperimento 1}{55}{subsection.6.1.2}\protected@file@percent }
\newlabel{analiseResultA}{{\M@TitleReference {6.1.2}{An\IeC {\'a}lise dos Resultados do Subexperimento 1}}{55}{Análise dos Resultados do Subexperimento 1}{subsection.6.1.2}{}}
\@writefile{lof}{\contentsline {figure}{\numberline {33}{\ignorespaces Representa\IeC {\c c}\IeC {\~a}o gr\IeC {\'a}fica do sexo biol\IeC {\'o}gico dos participantes do Subexperimento 1.\relax }}{56}{figure.caption.45}\protected@file@percent }
\newlabel{figura:sexo}{{\M@TitleReference {33}{Representa\IeC {\c c}\IeC {\~a}o gr\IeC {\'a}fica do sexo biol\IeC {\'o}gico dos participantes do Subexperimento 1.\relax }}{56}{Representação gráfica do sexo biológico dos participantes do Subexperimento 1.\relax }{figure.caption.45}{}}
\@writefile{lof}{\contentsline {figure}{\numberline {34}{\ignorespaces Representa\IeC {\c c}\IeC {\~a}o gr\IeC {\'a}fica dos alunos que trabalham fora o expediente de estudos do Subexperimento 1.\relax }}{56}{figure.caption.46}\protected@file@percent }
\newlabel{figura:trabalhasubexp1}{{\M@TitleReference {34}{Representa\IeC {\c c}\IeC {\~a}o gr\IeC {\'a}fica dos alunos que trabalham fora o expediente de estudos do Subexperimento 1.\relax }}{56}{Representação gráfica dos alunos que trabalham fora o expediente de estudos do Subexperimento 1.\relax }{figure.caption.46}{}}
\@writefile{lof}{\contentsline {figure}{\numberline {35}{\ignorespaces Representa\IeC {\c c}\IeC {\~a}o gr\IeC {\'a}fica do resultado da pesquisa em rela\IeC {\c c}\IeC {\~a}o ao Teorema \ref  {Teorema1} com base no question\IeC {\'a}rio 1 aplicado no Subexperimento 1.\relax }}{57}{figure.caption.47}\protected@file@percent }
\newlabel{figura:teorema1}{{\M@TitleReference {35}{Representa\IeC {\c c}\IeC {\~a}o gr\IeC {\'a}fica do resultado da pesquisa em rela\IeC {\c c}\IeC {\~a}o ao Teorema \ref  {Teorema1} com base no question\IeC {\'a}rio 1 aplicado no Subexperimento 1.\relax }}{57}{Representação gráfica do resultado da pesquisa em relação ao Teorema \ref {Teorema1} com base no questionário 1 aplicado no Subexperimento 1.\relax }{figure.caption.47}{}}
\@writefile{lot}{\contentsline {table}{\numberline {3}{\ignorespaces Ganhos de Aprendizagem Absoluto e Normalizado em rela\IeC {\c c}\IeC {\~a}o aos Teoremas \ref  {Teorema1} e \ref  {Teorema2} a partir dos dois grupos de participantes do Subexperimento 1. \relax }}{57}{table.caption.49}\protected@file@percent }
\newlabel{tab:ganhos}{{\M@TitleReference {3}{Ganhos de Aprendizagem Absoluto e Normalizado em rela\IeC {\c c}\IeC {\~a}o aos Teoremas \ref  {Teorema1} e \ref  {Teorema2} a partir dos dois grupos de participantes do Subexperimento 1. \relax }}{57}{Ganhos de Aprendizagem Absoluto e Normalizado em relação aos Teoremas \ref {Teorema1} e \ref {Teorema2} a partir dos dois grupos de participantes do Subexperimento 1. \relax }{table.caption.49}{}}
\@writefile{lof}{\contentsline {figure}{\numberline {36}{\ignorespaces Representa\IeC {\c c}\IeC {\~a}o gr\IeC {\'a}fica do resultado da pesquisa em rela\IeC {\c c}\IeC {\~a}o ao Teorema \ref  {Teorema2} com base no question\IeC {\'a}rio 2 aplicado no Subexperimento 1.\relax }}{58}{figure.caption.48}\protected@file@percent }
\newlabel{figura:teorema2}{{\M@TitleReference {36}{Representa\IeC {\c c}\IeC {\~a}o gr\IeC {\'a}fica do resultado da pesquisa em rela\IeC {\c c}\IeC {\~a}o ao Teorema \ref  {Teorema2} com base no question\IeC {\'a}rio 2 aplicado no Subexperimento 1.\relax }}{58}{Representação gráfica do resultado da pesquisa em relação ao Teorema \ref {Teorema2} com base no questionário 2 aplicado no Subexperimento 1.\relax }{figure.caption.48}{}}
\BKM@entry{id=44,dest={73756273656374696F6E2E362E312E33},srcline={265}}{416D65615C3334376173205C3334302056616C696461646520646F205375626578706572696D656E746F2031}
\@writefile{lot}{\contentsline {table}{\numberline {4}{\ignorespaces Teste de Normalidade do Subexperimento 1\relax }}{59}{table.caption.50}\protected@file@percent }
\newlabel{tab:testNormalsubexp1}{{\M@TitleReference {4}{Teste de Normalidade do Subexperimento 1\relax }}{59}{Teste de Normalidade do Subexperimento 1\relax }{table.caption.50}{}}
\@writefile{lot}{\contentsline {table}{\numberline {5}{\ignorespaces Teste t Dependente - Subexperimento 1 com n\IeC {\'\i }vel de signific\IeC {\^a}ncia 95\% ($\propto $ = 0,05)\relax }}{59}{table.caption.51}\protected@file@percent }
\newlabel{tab:tstdependenteExp1}{{\M@TitleReference {5}{Teste t Dependente - Subexperimento 1 com n\IeC {\'\i }vel de signific\IeC {\^a}ncia 95\% ($\propto $ = 0,05)\relax }}{59}{Teste t Dependente - Subexperimento 1 com nível de significância 95\% ($\propto $ = 0,05)\relax }{table.caption.51}{}}
\@writefile{lof}{\contentsline {figure}{\numberline {37}{\ignorespaces Gr\IeC {\'a}fico dos resultados do Question\IeC {\'a}rio de Usabilidade do \textit  {GraphViewer} obtidos com os 9 participantes do grupo de teste do Subexperimento 1\relax }}{60}{figure.caption.52}\protected@file@percent }
\newlabel{figura:usabilidade}{{\M@TitleReference {37}{Gr\IeC {\'a}fico dos resultados do Question\IeC {\'a}rio de Usabilidade do \textit  {GraphViewer} obtidos com os 9 participantes do grupo de teste do Subexperimento 1\relax }}{60}{Gráfico dos resultados do Questionário de Usabilidade do \textit {GraphViewer} obtidos com os 9 participantes do grupo de teste do Subexperimento 1\relax }{figure.caption.52}{}}
\@writefile{toc}{\contentsline {subsection}{\numberline {6.1.3}Amea\IeC {\c c}as \IeC {\`a} Validade do Subexperimento 1}{60}{subsection.6.1.3}\protected@file@percent }
\newlabel{ameacasExpA}{{\M@TitleReference {6.1.3}{Amea\IeC {\c c}as \IeC {\`a} Validade do Subexperimento 1}}{60}{Ameaças à Validade do Subexperimento 1}{subsection.6.1.3}{}}
\BKM@entry{id=45,dest={73656374696F6E2E362E32},srcline={282}}{526573756C7461646F7320646F205375626578706572696D656E746F2032}
\BKM@entry{id=46,dest={73756273656374696F6E2E362E322E31},srcline={286}}{4465736372695C3334375C3334336F20536F63696F616361645C3335326D69636120646F205375626578706572696D656E746F2032}
\@writefile{toc}{\contentsline {section}{\numberline {6.2}Resultados do Subexperimento 2}{61}{section.6.2}\protected@file@percent }
\newlabel{sec:resultb}{{\M@TitleReference {6.2}{Resultados do Subexperimento 2}}{61}{Resultados do Subexperimento 2}{section.6.2}{}}
\@writefile{toc}{\contentsline {subsection}{\numberline {6.2.1}Descri\IeC {\c c}\IeC {\~a}o Socioacad\IeC {\^e}mica do Subexperimento 2}{61}{subsection.6.2.1}\protected@file@percent }
\newlabel{distribuicaoParticipantesB}{{\M@TitleReference {6.2.1}{Descri\IeC {\c c}\IeC {\~a}o Socioacad\IeC {\^e}mica do Subexperimento 2}}{61}{Descrição Socioacadêmica do Subexperimento 2}{subsection.6.2.1}{}}
\@writefile{lof}{\contentsline {figure}{\numberline {38}{\ignorespaces Representa\IeC {\c c}\IeC {\~a}o gr\IeC {\'a}fica do ano de ingresso dos participantes do Subexperimento 2.\relax }}{61}{figure.caption.53}\protected@file@percent }
\newlabel{figura:anoingressoB}{{\M@TitleReference {38}{Representa\IeC {\c c}\IeC {\~a}o gr\IeC {\'a}fica do ano de ingresso dos participantes do Subexperimento 2.\relax }}{61}{Representação gráfica do ano de ingresso dos participantes do Subexperimento 2.\relax }{figure.caption.53}{}}
\@writefile{lof}{\contentsline {figure}{\numberline {39}{\ignorespaces Representa\IeC {\c c}\IeC {\~a}o gr\IeC {\'a}fica da cor/ra\IeC {\c c}a dos participantes do Subexperimento 2.\relax }}{62}{figure.caption.54}\protected@file@percent }
\newlabel{figura:corouracaB}{{\M@TitleReference {39}{Representa\IeC {\c c}\IeC {\~a}o gr\IeC {\'a}fica da cor/ra\IeC {\c c}a dos participantes do Subexperimento 2.\relax }}{62}{Representação gráfica da cor/raça dos participantes do Subexperimento 2.\relax }{figure.caption.54}{}}
\BKM@entry{id=47,dest={73756273656374696F6E2E362E322E32},srcline={351}}{416E5C3334316C69736520646F7320526573756C7461646F7320646F205375626578706572696D656E746F203220}
\@writefile{lof}{\contentsline {figure}{\numberline {40}{\ignorespaces Representa\IeC {\c c}\IeC {\~a}o gr\IeC {\'a}fica da idade dos participantes do Subexperimento 2.\relax }}{63}{figure.caption.55}\protected@file@percent }
\newlabel{figura:idadeparticipantesB}{{\M@TitleReference {40}{Representa\IeC {\c c}\IeC {\~a}o gr\IeC {\'a}fica da idade dos participantes do Subexperimento 2.\relax }}{63}{Representação gráfica da idade dos participantes do Subexperimento 2.\relax }{figure.caption.55}{}}
\@writefile{lof}{\contentsline {figure}{\numberline {41}{\ignorespaces Representa\IeC {\c c}\IeC {\~a}o gr\IeC {\'a}fica do g\IeC {\^e}nero dos participantes do Subexperimento 2.\relax }}{63}{figure.caption.56}\protected@file@percent }
\newlabel{figura:sexoB}{{\M@TitleReference {41}{Representa\IeC {\c c}\IeC {\~a}o gr\IeC {\'a}fica do g\IeC {\^e}nero dos participantes do Subexperimento 2.\relax }}{63}{Representação gráfica do gênero dos participantes do Subexperimento 2.\relax }{figure.caption.56}{}}
\@writefile{toc}{\contentsline {subsection}{\numberline {6.2.2}An\IeC {\'a}lise dos Resultados do Subexperimento 2 }{63}{subsection.6.2.2}\protected@file@percent }
\newlabel{analiseResultB}{{\M@TitleReference {6.2.2}{An\IeC {\'a}lise dos Resultados do Subexperimento 2 }}{63}{Análise dos Resultados do Subexperimento 2}{subsection.6.2.2}{}}
\@writefile{lof}{\contentsline {figure}{\numberline {42}{\ignorespaces Representa\IeC {\c c}\IeC {\~a}o gr\IeC {\'a}fica dos alunos que trabalham fora o expediente de estudos do Subexperimento 2.\relax }}{64}{figure.caption.57}\protected@file@percent }
\newlabel{figura:setrabalhaB}{{\M@TitleReference {42}{Representa\IeC {\c c}\IeC {\~a}o gr\IeC {\'a}fica dos alunos que trabalham fora o expediente de estudos do Subexperimento 2.\relax }}{64}{Representação gráfica dos alunos que trabalham fora o expediente de estudos do Subexperimento 2.\relax }{figure.caption.57}{}}
\@writefile{lot}{\contentsline {table}{\numberline {6}{\ignorespaces Ganhos de Aprendizagem Absoluto e Normalizado em rela\IeC {\c c}\IeC {\~a}o aos Teoremas \ref  {Teorema1} e \ref  {Teorema2} a partir dos dois grupos de participantes do Subexperimento 2.\relax }}{64}{table.caption.60}\protected@file@percent }
\newlabel{tab:ganhosExpB}{{\M@TitleReference {6}{Ganhos de Aprendizagem Absoluto e Normalizado em rela\IeC {\c c}\IeC {\~a}o aos Teoremas \ref  {Teorema1} e \ref  {Teorema2} a partir dos dois grupos de participantes do Subexperimento 2.\relax }}{64}{Ganhos de Aprendizagem Absoluto e Normalizado em relação aos Teoremas \ref {Teorema1} e \ref {Teorema2} a partir dos dois grupos de participantes do Subexperimento 2.\relax }{table.caption.60}{}}
\@writefile{lof}{\contentsline {figure}{\numberline {43}{\ignorespaces Representa\IeC {\c c}\IeC {\~a}o gr\IeC {\'a}fica do resultado da pesquisa em rela\IeC {\c c}\IeC {\~a}o ao Teorema \ref  {Teorema1} com base no question\IeC {\'a}rio 1 e no Subexperimento 2.\relax }}{65}{figure.caption.58}\protected@file@percent }
\newlabel{figura:teorema1B}{{\M@TitleReference {43}{Representa\IeC {\c c}\IeC {\~a}o gr\IeC {\'a}fica do resultado da pesquisa em rela\IeC {\c c}\IeC {\~a}o ao Teorema \ref  {Teorema1} com base no question\IeC {\'a}rio 1 e no Subexperimento 2.\relax }}{65}{Representação gráfica do resultado da pesquisa em relação ao Teorema \ref {Teorema1} com base no questionário 1 e no Subexperimento 2.\relax }{figure.caption.58}{}}
\@writefile{lof}{\contentsline {figure}{\numberline {44}{\ignorespaces Representa\IeC {\c c}\IeC {\~a}o gr\IeC {\'a}fica do resultado da pesquisa em rela\IeC {\c c}\IeC {\~a}o ao Teorema \ref  {Teorema2} com base no question\IeC {\'a}rio 2 e no Subexperimento 2.\relax }}{66}{figure.caption.59}\protected@file@percent }
\newlabel{figura:teorema2B}{{\M@TitleReference {44}{Representa\IeC {\c c}\IeC {\~a}o gr\IeC {\'a}fica do resultado da pesquisa em rela\IeC {\c c}\IeC {\~a}o ao Teorema \ref  {Teorema2} com base no question\IeC {\'a}rio 2 e no Subexperimento 2.\relax }}{66}{Representação gráfica do resultado da pesquisa em relação ao Teorema \ref {Teorema2} com base no questionário 2 e no Subexperimento 2.\relax }{figure.caption.59}{}}
\BKM@entry{id=48,dest={73756273656374696F6E2E362E322E33},srcline={463}}{416D65615C3334376173205C3334302056616C696461646520646F205375626578706572696D656E746F2032}
\BKM@entry{id=49,dest={73656374696F6E2E362E33},srcline={481}}{526573756C7461646F7320646F204578706572696D656E746F}
\@writefile{lot}{\contentsline {table}{\numberline {7}{\ignorespaces Teste de Normalidade do Subexperimento 2\relax }}{67}{table.caption.61}\protected@file@percent }
\newlabel{tab:testNormalsubexp2}{{\M@TitleReference {7}{Teste de Normalidade do Subexperimento 2\relax }}{67}{Teste de Normalidade do Subexperimento 2\relax }{table.caption.61}{}}
\@writefile{lot}{\contentsline {table}{\numberline {8}{\ignorespaces Teste t Dependente - Subexperimento 2 com n\IeC {\'\i }vel de signific\IeC {\^a}ncia 95\% ($\propto $ = 0,05)\relax }}{67}{table.caption.62}\protected@file@percent }
\newlabel{tab:tstdependenteExp2}{{\M@TitleReference {8}{Teste t Dependente - Subexperimento 2 com n\IeC {\'\i }vel de signific\IeC {\^a}ncia 95\% ($\propto $ = 0,05)\relax }}{67}{Teste t Dependente - Subexperimento 2 com nível de significância 95\% ($\propto $ = 0,05)\relax }{table.caption.62}{}}
\@writefile{toc}{\contentsline {subsection}{\numberline {6.2.3}Amea\IeC {\c c}as \IeC {\`a} Validade do Subexperimento 2}{67}{subsection.6.2.3}\protected@file@percent }
\newlabel{ameacasExp2}{{\M@TitleReference {6.2.3}{Amea\IeC {\c c}as \IeC {\`a} Validade do Subexperimento 2}}{67}{Ameaças à Validade do Subexperimento 2}{subsection.6.2.3}{}}
\BKM@entry{id=50,dest={73756273656374696F6E2E362E332E31},srcline={485}}{4465736372695C3334375C3334336F20536F63696F616361645C3335326D69636120646F7320526573756C7461646F7320646F204578706572696D656E746F}
\@writefile{lof}{\contentsline {figure}{\numberline {45}{\ignorespaces Gr\IeC {\'a}fico dos resultados do Question\IeC {\'a}rio de Usabilidade do \textit  {GraphViewer} obtidos com os 17 participantes do grupo de teste do Subexperimento 2.\relax }}{68}{figure.caption.63}\protected@file@percent }
\newlabel{figura:usabilidadeb}{{\M@TitleReference {45}{Gr\IeC {\'a}fico dos resultados do Question\IeC {\'a}rio de Usabilidade do \textit  {GraphViewer} obtidos com os 17 participantes do grupo de teste do Subexperimento 2.\relax }}{68}{Gráfico dos resultados do Questionário de Usabilidade do \textit {GraphViewer} obtidos com os 17 participantes do grupo de teste do Subexperimento 2.\relax }{figure.caption.63}{}}
\@writefile{toc}{\contentsline {section}{\numberline {6.3}Resultados do Experimento}{68}{section.6.3}\protected@file@percent }
\newlabel{sec:resultaeb}{{\M@TitleReference {6.3}{Resultados do Experimento}}{68}{Resultados do Experimento}{section.6.3}{}}
\@writefile{toc}{\contentsline {subsection}{\numberline {6.3.1}Descri\IeC {\c c}\IeC {\~a}o Socioacad\IeC {\^e}mica dos Resultados do Experimento}{68}{subsection.6.3.1}\protected@file@percent }
\newlabel{distribuicaoParticipantesAB}{{\M@TitleReference {6.3.1}{Descri\IeC {\c c}\IeC {\~a}o Socioacad\IeC {\^e}mica dos Resultados do Experimento}}{68}{Descrição Socioacadêmica dos Resultados do Experimento}{subsection.6.3.1}{}}
\@writefile{lof}{\contentsline {figure}{\numberline {46}{\ignorespaces Representa\IeC {\c c}\IeC {\~a}o gr\IeC {\'a}fica do ano de ingresso dos participantes do Experimento.\relax }}{69}{figure.caption.64}\protected@file@percent }
\newlabel{figura:anoingressoAB}{{\M@TitleReference {46}{Representa\IeC {\c c}\IeC {\~a}o gr\IeC {\'a}fica do ano de ingresso dos participantes do Experimento.\relax }}{69}{Representação gráfica do ano de ingresso dos participantes do Experimento.\relax }{figure.caption.64}{}}
\@writefile{lof}{\contentsline {figure}{\numberline {47}{\ignorespaces Representa\IeC {\c c}\IeC {\~a}o gr\IeC {\'a}fica da cor/ra\IeC {\c c}a dos participantes do Experimento.\relax }}{69}{figure.caption.65}\protected@file@percent }
\newlabel{figura:corouracaAB}{{\M@TitleReference {47}{Representa\IeC {\c c}\IeC {\~a}o gr\IeC {\'a}fica da cor/ra\IeC {\c c}a dos participantes do Experimento.\relax }}{69}{Representação gráfica da cor/raça dos participantes do Experimento.\relax }{figure.caption.65}{}}
\@writefile{lof}{\contentsline {figure}{\numberline {48}{\ignorespaces Representa\IeC {\c c}\IeC {\~a}o gr\IeC {\'a}fica da idade dos participantes do Experimento.\relax }}{70}{figure.caption.66}\protected@file@percent }
\newlabel{figura:idadeparticipantesAB}{{\M@TitleReference {48}{Representa\IeC {\c c}\IeC {\~a}o gr\IeC {\'a}fica da idade dos participantes do Experimento.\relax }}{70}{Representação gráfica da idade dos participantes do Experimento.\relax }{figure.caption.66}{}}
\@writefile{lof}{\contentsline {figure}{\numberline {49}{\ignorespaces Representa\IeC {\c c}\IeC {\~a}o gr\IeC {\'a}fica do sexo biol\IeC {\'o}gico dos participantes do Experimento.\relax }}{70}{figure.caption.67}\protected@file@percent }
\newlabel{figura:sexoAB}{{\M@TitleReference {49}{Representa\IeC {\c c}\IeC {\~a}o gr\IeC {\'a}fica do sexo biol\IeC {\'o}gico dos participantes do Experimento.\relax }}{70}{Representação gráfica do sexo biológico dos participantes do Experimento.\relax }{figure.caption.67}{}}
\BKM@entry{id=51,dest={73756273656374696F6E2E362E332E32},srcline={548}}{416E5C3334316C69736520646F7320526573756C7461646F7320646F204578706572696D656E746F20}
\@writefile{lof}{\contentsline {figure}{\numberline {50}{\ignorespaces Representa\IeC {\c c}\IeC {\~a}o gr\IeC {\'a}fica dos alunos que trabalham fora do expediente de estudos do Experimento.\relax }}{71}{figure.caption.68}\protected@file@percent }
\newlabel{figura:setrabalhaAB}{{\M@TitleReference {50}{Representa\IeC {\c c}\IeC {\~a}o gr\IeC {\'a}fica dos alunos que trabalham fora do expediente de estudos do Experimento.\relax }}{71}{Representação gráfica dos alunos que trabalham fora do expediente de estudos do Experimento.\relax }{figure.caption.68}{}}
\@writefile{toc}{\contentsline {subsection}{\numberline {6.3.2}An\IeC {\'a}lise dos Resultados do Experimento }{71}{subsection.6.3.2}\protected@file@percent }
\newlabel{analiseResultAB}{{\M@TitleReference {6.3.2}{An\IeC {\'a}lise dos Resultados do Experimento }}{71}{Análise dos Resultados do Experimento}{subsection.6.3.2}{}}
\@writefile{lof}{\contentsline {figure}{\numberline {51}{\ignorespaces Representa\IeC {\c c}\IeC {\~a}o gr\IeC {\'a}fica do resultado da pesquisa em rela\IeC {\c c}\IeC {\~a}o ao Teorema \ref  {Teorema1} com base no question\IeC {\'a}rio 1 e no Experimento.\relax }}{72}{figure.caption.69}\protected@file@percent }
\newlabel{figura:teorema1AB}{{\M@TitleReference {51}{Representa\IeC {\c c}\IeC {\~a}o gr\IeC {\'a}fica do resultado da pesquisa em rela\IeC {\c c}\IeC {\~a}o ao Teorema \ref  {Teorema1} com base no question\IeC {\'a}rio 1 e no Experimento.\relax }}{72}{Representação gráfica do resultado da pesquisa em relação ao Teorema \ref {Teorema1} com base no questionário 1 e no Experimento.\relax }{figure.caption.69}{}}
\@writefile{lof}{\contentsline {figure}{\numberline {52}{\ignorespaces Representa\IeC {\c c}\IeC {\~a}o gr\IeC {\'a}fica do resultado da pesquisa em rela\IeC {\c c}\IeC {\~a}o ao Teorema \ref  {Teorema2} com base no question\IeC {\'a}rio 2 e no Experimento.\relax }}{73}{figure.caption.70}\protected@file@percent }
\newlabel{figura:teorema2AB}{{\M@TitleReference {52}{Representa\IeC {\c c}\IeC {\~a}o gr\IeC {\'a}fica do resultado da pesquisa em rela\IeC {\c c}\IeC {\~a}o ao Teorema \ref  {Teorema2} com base no question\IeC {\'a}rio 2 e no Experimento.\relax }}{73}{Representação gráfica do resultado da pesquisa em relação ao Teorema \ref {Teorema2} com base no questionário 2 e no Experimento.\relax }{figure.caption.70}{}}
\BKM@entry{id=52,dest={73756273656374696F6E2E362E332E33},srcline={660}}{416D65615C3334376173205C3334302056616C696461646520646F204578706572696D656E746F}
\@writefile{lot}{\contentsline {table}{\numberline {9}{\ignorespaces Ganhos de Aprendizagem Absoluto e Normalizado em rela\IeC {\c c}\IeC {\~a}o aos Teoremas \ref  {Teorema1} e \ref  {Teorema2} a partir dos dois grupos de participantes do Experimento.\relax }}{74}{table.caption.71}\protected@file@percent }
\newlabel{tab:ganhosExpAB}{{\M@TitleReference {9}{Ganhos de Aprendizagem Absoluto e Normalizado em rela\IeC {\c c}\IeC {\~a}o aos Teoremas \ref  {Teorema1} e \ref  {Teorema2} a partir dos dois grupos de participantes do Experimento.\relax }}{74}{Ganhos de Aprendizagem Absoluto e Normalizado em relação aos Teoremas \ref {Teorema1} e \ref {Teorema2} a partir dos dois grupos de participantes do Experimento.\relax }{table.caption.71}{}}
\@writefile{lot}{\contentsline {table}{\numberline {10}{\ignorespaces Teste de Normalidade do Experimento\relax }}{74}{table.caption.72}\protected@file@percent }
\newlabel{tab:testNormalidadeexp}{{\M@TitleReference {10}{Teste de Normalidade do Experimento\relax }}{74}{Teste de Normalidade do Experimento\relax }{table.caption.72}{}}
\@writefile{lot}{\contentsline {table}{\numberline {11}{\ignorespaces Teste t Dependente - Experimento com n\IeC {\'\i }vel de signific\IeC {\^a}ncia 95\% ($\propto $ = 0,05) \relax }}{74}{table.caption.73}\protected@file@percent }
\newlabel{tab:tstdependenteExp1e2}{{\M@TitleReference {11}{Teste t Dependente - Experimento com n\IeC {\'\i }vel de signific\IeC {\^a}ncia 95\% ($\propto $ = 0,05) \relax }}{74}{Teste t Dependente - Experimento com nível de significância 95\% ($\propto $ = 0,05) \relax }{table.caption.73}{}}
\@writefile{lof}{\contentsline {figure}{\numberline {53}{\ignorespaces Gr\IeC {\'a}fico dos resultados do Question\IeC {\'a}rio de Usabilidade do \textit  {GraphViewer} obtidos com os 26 participantes do grupo de teste do Experimento.\relax }}{75}{figure.caption.74}\protected@file@percent }
\newlabel{figura:usabilidadeAB}{{\M@TitleReference {53}{Gr\IeC {\'a}fico dos resultados do Question\IeC {\'a}rio de Usabilidade do \textit  {GraphViewer} obtidos com os 26 participantes do grupo de teste do Experimento.\relax }}{75}{Gráfico dos resultados do Questionário de Usabilidade do \textit {GraphViewer} obtidos com os 26 participantes do grupo de teste do Experimento.\relax }{figure.caption.74}{}}
\@writefile{toc}{\contentsline {subsection}{\numberline {6.3.3}Amea\IeC {\c c}as \IeC {\`a} Validade do Experimento}{75}{subsection.6.3.3}\protected@file@percent }
\newlabel{ameacasExp}{{\M@TitleReference {6.3.3}{Amea\IeC {\c c}as \IeC {\`a} Validade do Experimento}}{75}{Ameaças à Validade do Experimento}{subsection.6.3.3}{}}
\BKM@entry{id=53,dest={636861707465722E37},srcline={633}}{436F6E7369646572615C3334375C33363565732046696E616973}
\citation{carvalhoMONOGRAFIA:2017}
\citation{carvalhoMONOGRAFIA:2017}
\citation{carvalhoMONOGRAFIA:2017}
\bibdata{abntex2-options,bib}
\@writefile{toc}{\contentsline {chapter}{\chapternumberline {7}Considera\IeC {\c c}\IeC {\~o}es Finais}{76}{chapter.7}\protected@file@percent }
\newlabel{cap:conclusao}{{\M@TitleReference {7}{Considera\IeC {\c c}\IeC {\~o}es Finais}}{76}{Considerações Finais}{chapter.7}{}}
\@writefile{brf}{\backcite{carvalhoMONOGRAFIA:2017}{{76}{7}{chapter.7}}}
\@writefile{brf}{\backcite{carvalhoMONOGRAFIA:2017}{{76}{7}{chapter.7}}}
\@writefile{brf}{\backcite{carvalhoMONOGRAFIA:2017}{{76}{7}{chapter.7}}}
\@writefile{toc}{\vspace  {\cftbeforepartskip }}
\BKM@entry{id=54,dest={636861707465722A2E3736},srcline={3}}{52656665725C3335326E63696173}
\bibcite{nagafuchi:2009}{Batista e Nagafuchi 2010}
\bibciteEXPL{nagafuchi:2009}{Batista e Nagafuchi}
\bibciteIMPL{nagafuchi:2009}{BATISTA; NAGAFUCHI}
\bibciteYEAR{nagafuchi:2009}{2010}
\bibcite{bernardes2016furb}{Bernardes 2016}
\bibciteEXPL{bernardes2016furb}{Bernardes}
\bibciteIMPL{bernardes2016furb}{BERNARDES}
\bibciteYEAR{bernardes2016furb}{2016}
\bibcite{carvalho:2004}{Carvalho 2004}
\bibciteEXPL{carvalho:2004}{Carvalho}
\bibciteIMPL{carvalho:2004}{CARVALHO}
\bibciteYEAR{carvalho:2004}{2004}
\bibcite{carvalhoMONOGRAFIA:2017}{Carvalho 2017}
\bibciteEXPL{carvalhoMONOGRAFIA:2017}{Carvalho}
\bibciteIMPL{carvalhoMONOGRAFIA:2017}{CARVALHO}
\bibciteYEAR{carvalhoMONOGRAFIA:2017}{2017}
\bibcite{carvalho:2017}{Carvalho et al. 2017}
\bibciteEXPL{carvalho:2017}{Carvalho et al.}
\bibciteIMPL{carvalho:2017}{CARVALHO et al.}
\bibciteYEAR{carvalho:2017}{2017}
\bibcite{cordeiro:2004}{Cordeiro et al. 2004}
\bibciteEXPL{cordeiro:2004}{Cordeiro et al.}
\bibciteIMPL{cordeiro:2004}{CORDEIRO et al.}
\bibciteYEAR{cordeiro:2004}{2004}
\bibcite{feofiloff:2013}{Feofiloff 2013}
\bibciteEXPL{feofiloff:2013}{Feofiloff}
\bibciteIMPL{feofiloff:2013}{FEOFILOFF}
\bibciteYEAR{feofiloff:2013}{2013}
\bibcite{fincher:2004}{Fincher e Petre 2004}
\bibciteEXPL{fincher:2004}{Fincher e Petre}
\bibciteIMPL{fincher:2004}{FINCHER; PETRE}
\bibciteYEAR{fincher:2004}{2004}
\bibcite{garcia:1997}{Garcia, Rezende e Calheiros 1997}
\bibciteEXPL{garcia:1997}{Garcia, Rezende e Calheiros}
\bibciteIMPL{garcia:1997}{GARCIA; REZENDE; CALHEIROS}
\bibciteYEAR{garcia:1997}{1997}
\bibcite{gersting:2004}{Gersting 2004}
\bibciteEXPL{gersting:2004}{Gersting}
\bibciteIMPL{gersting:2004}{GERSTING}
\bibciteYEAR{gersting:2004}{2004}
\bibcite{gladcheff:2001}{Gladcheff, Sanches e Silva 2001}
\bibciteEXPL{gladcheff:2001}{Gladcheff, Sanches e Silva}
\bibciteIMPL{gladcheff:2001}{GLADCHEFF; SANCHES; SILVA}
\bibciteYEAR{gladcheff:2001}{2001}
\bibcite{hake:1998}{Hake 1998}
\bibciteEXPL{hake:1998}{Hake}
\bibciteIMPL{hake:1998}{HAKE}
\bibciteYEAR{hake:1998}{1998}
\bibcite{hexsel:2002}{Hexsel 2002}
\bibciteEXPL{hexsel:2002}{Hexsel}
\bibciteIMPL{hexsel:2002}{HEXSEL}
\bibciteYEAR{hexsel:2002}{2002}
\@writefile{toc}{\contentsline {chapter}{Refer\^encias}{77}{chapter*.76}\protected@file@percent }
\bibcite{marconilakatos2003}{Lakatos e Marconi 2003}
\bibciteEXPL{marconilakatos2003}{Lakatos e Marconi}
\bibciteIMPL{marconilakatos2003}{LAKATOS; MARCONI}
\bibciteYEAR{marconilakatos2003}{2003}
\bibcite{lozada:2014}{Lozada 2014}
\bibciteEXPL{lozada:2014}{Lozada}
\bibciteIMPL{lozada:2014}{LOZADA}
\bibciteYEAR{lozada:2014}{2014}
\bibcite{machado2016}{Machado 2016}
\bibciteEXPL{machado2016}{Machado}
\bibciteIMPL{machado2016}{MACHADO}
\bibciteYEAR{machado2016}{2016}
\bibcite{manso:2009}{Manso, Oliveira e Marques 2009}
\bibciteEXPL{manso:2009}{Manso, Oliveira e Marques}
\bibciteIMPL{manso:2009}{MANSO; OLIVEIRA; MARQUES}
\bibciteYEAR{manso:2009}{2009}
\bibcite{maroco:2007}{Mar{\^o}co 2007}
\bibciteEXPL{maroco:2007}{Mar{\^o}co}
\bibciteIMPL{maroco:2007}{MAR{\^O}CO}
\bibciteYEAR{maroco:2007}{2007}
\bibcite{menezes:2013}{Menezes 2013}
\bibciteEXPL{menezes:2013}{Menezes}
\bibciteIMPL{menezes:2013}{MENEZES}
\bibciteYEAR{menezes:2013}{2013}
\bibcite{mota:2011}{Mota e Carvalho 2011}
\bibciteEXPL{mota:2011}{Mota e Carvalho}
\bibciteIMPL{mota:2011}{MOTA; CARVALHO}
\bibciteYEAR{mota:2011}{2011}
\bibcite{nasser:2004}{Nasser 2004}
\bibciteEXPL{nasser:2004}{Nasser}
\bibciteIMPL{nasser:2004}{NASSER}
\bibciteYEAR{nasser:2004}{2004}
\bibcite{nemoto2014likert}{Nemoto e Beglar 2014}
\bibciteEXPL{nemoto2014likert}{Nemoto e Beglar}
\bibciteIMPL{nemoto2014likert}{NEMOTO; BEGLAR}
\bibciteYEAR{nemoto2014likert}{2014}
\bibcite{picoli2019proposta}{Picoli, Santos e Mendes 2019}
\bibciteEXPL{picoli2019proposta}{Picoli, Santos e Mendes}
\bibciteIMPL{picoli2019proposta}{PICOLI; SANTOS; MENDES}
\bibciteYEAR{picoli2019proposta}{2019}
\bibcite{pimentel:2003}{Pimentel et al. 2003}
\bibciteEXPL{pimentel:2003}{Pimentel et al.}
\bibciteIMPL{pimentel:2003}{PIMENTEL et al.}
\bibciteYEAR{pimentel:2003}{2003}
\bibcite{rebelo:2005}{Rebelo et al. 2005}
\bibciteEXPL{rebelo:2005}{Rebelo et al.}
\bibciteIMPL{rebelo:2005}{REBELO et al.}
\bibciteYEAR{rebelo:2005}{2005}
\bibcite{sangiorgi:2006}{Sangiorgi 2006}
\bibciteEXPL{sangiorgi:2006}{Sangiorgi}
\bibciteIMPL{sangiorgi:2006}{SANGIORGI}
\bibciteYEAR{sangiorgi:2006}{2006}
\bibcite{murari:2002}{Santos, Mello e Murari 2002}
\bibciteEXPL{murari:2002}{Santos, Mello e Murari}
\bibciteIMPL{murari:2002}{SANTOS; MELLO; MURARI}
\bibciteYEAR{murari:2002}{2002}
\bibcite{santos:2008}{Santos et al. 2008}
\bibciteEXPL{santos:2008}{Santos et al.}
\bibciteIMPL{santos:2008}{SANTOS et al.}
\bibciteYEAR{santos:2008}{2008}
\bibcite{santos:2007}{Santos e Costa 2007}
\bibciteEXPL{santos:2007}{Santos e Costa}
\bibciteIMPL{santos:2007}{SANTOS; COSTA}
\bibciteYEAR{santos:2007}{2007}
\bibcite{santos:2016}{Santos e Costa 2016}
\bibciteEXPL{santos:2016}{Santos e Costa}
\bibciteIMPL{santos:2016}{SANTOS; COSTA}
\bibciteYEAR{santos:2016}{2016}
\bibcite{schliep:2002}{Schliep e Hochstattler 2002}
\bibciteEXPL{schliep:2002}{Schliep e Hochstattler}
\bibciteIMPL{schliep:2002}{SCHLIEP; HOCHSTATTLER}
\bibciteYEAR{schliep:2002}{2002}
\bibcite{soares:2004}{Soares et al. 2004}
\bibciteEXPL{soares:2004}{Soares et al.}
\bibciteIMPL{soares:2004}{SOARES et al.}
\bibciteYEAR{soares:2004}{2004}
\bibcite{solingen2002}{Solingen et al. 2002}
\bibciteEXPL{solingen2002}{Solingen et al.}
\bibciteIMPL{solingen2002}{SOLINGEN et al.}
\bibciteYEAR{solingen2002}{2002}
\bibcite{sommerville2010}{Sommerville 2010}
\bibciteEXPL{sommerville2010}{Sommerville}
\bibciteIMPL{sommerville2010}{SOMMERVILLE}
\bibciteYEAR{sommerville2010}{2010}
\bibcite{sousa:2010}{Sousa 2010}
\bibciteEXPL{sousa:2010}{Sousa}
\bibciteIMPL{sousa:2010}{SOUSA}
\bibciteYEAR{sousa:2010}{2010}
\bibcite{souza:2009}{{S}ouza 2009}
\bibciteEXPL{souza:2009}{{S}ouza}
\bibciteIMPL{souza:2009}{{S}OUZA}
\bibciteYEAR{souza:2009}{2009}
\bibcite{STEINDRYSDALEROBERTL:2005}{STEIN, DRYSDALE e BOGART 2005}
\bibciteEXPL{STEINDRYSDALEROBERTL:2005}{STEIN, DRYSDALE e BOGART}
\bibciteIMPL{STEINDRYSDALEROBERTL:2005}{STEIN; DRYSDALE; BOGART}
\bibciteYEAR{STEINDRYSDALEROBERTL:2005}{2005}
\@writefile{toc}{\cftinsert {AAA}}
\@switch{ANEXO} 
\BKM@entry{id=55,dest={73656374696F6E2A2E3737},srcline={679}}{416E65786F73}
\@writefile{toc}{\contentsline {part}{Anexos}{80}{section*.77}\protected@file@percent }
\BKM@entry{id=56,dest={617070656E6469782E616E65786F636861706261636B2E31},srcline={679}}{54656F72656D6173}
\@writefile{toc}{\contentsline {appendix}{\chapternumberline {A}Teoremas}{81}{appendix.anexochapback.1}\protected@file@percent }
\newlabel{anexo:teoremas}{{\M@TitleReference {A}{Teoremas}}{81}{Teoremas}{appendix.anexochapback.1}{}}
\newlabel{Teorema1}{{\M@TitleReference {1}{Teoremas}}{81}{}{mydef.1}{}}
\newlabel{Teorema2}{{\M@TitleReference {2}{Teoremas}}{81}{}{mydef.2}{}}
\BKM@entry{id=57,dest={617070656E6469782E616E65786F636861706261636B2E32},srcline={722}}{5175657374696F6E5C33343172696F73}
\BKM@entry{id=58,dest={73656374696F6E2E616E65786F636861706261636B2E322E31},srcline={727}}{5175657374696F6E5C33343172696F2031202D2054656F72656D612031}
\@writefile{toc}{\contentsline {appendix}{\chapternumberline {B}Question\IeC {\'a}rios}{82}{appendix.anexochapback.2}\protected@file@percent }
\newlabel{anexo:questionarios}{{\M@TitleReference {B}{Question\IeC {\'a}rios}}{82}{Questionários}{appendix.anexochapback.2}{}}
\@writefile{toc}{\contentsline {section}{\numberline {B.1}Question\IeC {\'a}rio 1 - Teorema \ref  {Teorema1}}{82}{section.anexochapback.2.1}\protected@file@percent }
\newlabel{questionario1}{{\M@TitleReference {B.1}{Question\IeC {\'a}rio 1 - Teorema \ref  {Teorema1}}}{82}{Questionário 1 - Teorema \ref {Teorema1}}{section.anexochapback.2.1}{}}
\newlabel{figura:gglinha}{{\M@TitleReference {\caption@xref {figura:gglinha}{ on input line 753}}{Question\IeC {\'a}rio 1 - Teorema \ref  {Teorema1}}}{82}{Questionário 1 - Teorema \ref {Teorema1}}{figure.caption.78}{}}
\newlabel{figura:figura2t1}{{\M@TitleReference {\caption@xref {figura:figura2t1}{ on input line 788}}{Question\IeC {\'a}rio 1 - Teorema \ref  {Teorema1}}}{83}{Questionário 1 - Teorema \ref {Teorema1}}{figure.caption.79}{}}
\BKM@entry{id=59,dest={73656374696F6E2E616E65786F636861706261636B2E322E32},srcline={858}}{5175657374696F6E5C33343172696F2032202D2054656F72656D612032}
\newlabel{figura:figurast1}{{\M@TitleReference {\caption@xref {figura:figurast1}{ on input line 852}}{Question\IeC {\'a}rio 1 - Teorema \ref  {Teorema1}}}{84}{Questionário 1 - Teorema \ref {Teorema1}}{figure.caption.80}{}}
\@writefile{toc}{\contentsline {section}{\numberline {B.2}Question\IeC {\'a}rio 2 - Teorema \ref  {Teorema2}}{84}{section.anexochapback.2.2}\protected@file@percent }
\newlabel{questionario2}{{\M@TitleReference {B.2}{Question\IeC {\'a}rio 2 - Teorema \ref  {Teorema2}}}{84}{Questionário 2 - Teorema \ref {Teorema2}}{section.anexochapback.2.2}{}}
\newlabel{figura:figura1quest2}{{\M@TitleReference {\caption@xref {figura:figura1quest2}{ on input line 886}}{Question\IeC {\'a}rio 2 - Teorema \ref  {Teorema2}}}{85}{Questionário 2 - Teorema \ref {Teorema2}}{figure.caption.81}{}}
\newlabel{figura:figura2quest2}{{\M@TitleReference {\caption@xref {figura:figura2quest2}{ on input line 919}}{Question\IeC {\'a}rio 2 - Teorema \ref  {Teorema2}}}{85}{Questionário 2 - Teorema \ref {Teorema2}}{figure.caption.82}{}}
\newlabel{figura:figurast2}{{\M@TitleReference {\caption@xref {figura:figurast2}{ on input line 927}}{Question\IeC {\'a}rio 2 - Teorema \ref  {Teorema2}}}{86}{Questionário 2 - Teorema \ref {Teorema2}}{figure.caption.83}{}}
\BKM@entry{id=60,dest={73656374696F6E2E616E65786F636861706261636B2E322E33},srcline={937}}{5175657374696F6E5C33343172696F2033202D20536F63696F616361645C3335326D69636F}
\@writefile{toc}{\contentsline {section}{\numberline {B.3}Question\IeC {\'a}rio 3 - Socioacad\IeC {\^e}mico}{87}{section.anexochapback.2.3}\protected@file@percent }
\newlabel{questionario3}{{\M@TitleReference {B.3}{Question\IeC {\'a}rio 3 - Socioacad\IeC {\^e}mico}}{87}{Questionário 3 - Socioacadêmico}{section.anexochapback.2.3}{}}
\BKM@entry{id=61,dest={73656374696F6E2E616E65786F636861706261636B2E322E34},srcline={1083}}{5175657374696F6E5C33343172696F2034202D2055736162696C6964616465}
\@writefile{toc}{\contentsline {section}{\numberline {B.4}Question\IeC {\'a}rio 4 - Usabilidade}{89}{section.anexochapback.2.4}\protected@file@percent }
\newlabel{questionario4}{{\M@TitleReference {B.4}{Question\IeC {\'a}rio 4 - Usabilidade}}{89}{Questionário 4 - Usabilidade}{section.anexochapback.2.4}{}}
\BKM@entry{id=62,dest={617070656E6469782E616E65786F636861706261636B2E33},srcline={1148}}{526573756C7461646F20646F7320702076616C6F726573}
\@writefile{toc}{\contentsline {appendix}{\chapternumberline {C}Resultado dos \textit  {p} valores}{91}{appendix.anexochapback.3}\protected@file@percent }
\newlabel{anexo:pvalor}{{\M@TitleReference {C}{Resultado dos \textit  {p} valores}}{91}{Resultado dos \textit {p} valores}{appendix.anexochapback.3}{}}
\@writefile{lot}{\contentsline {table}{\numberline {12}{\ignorespaces p-valores obtidos ap\IeC {\'o}s os testes de normalidade Kolmogorov-Smirnov em rela\IeC {\c c}\IeC {\~a}o as notas de cada aluno no Subexperimento 1.\relax }}{91}{table.caption.84}\protected@file@percent }
\newlabel{tab:valorpsubexp1}{{\M@TitleReference {12}{p-valores obtidos ap\IeC {\'o}s os testes de normalidade Kolmogorov-Smirnov em rela\IeC {\c c}\IeC {\~a}o as notas de cada aluno no Subexperimento 1.\relax }}{91}{p-valores obtidos após os testes de normalidade Kolmogorov-Smirnov em relação as notas de cada aluno no Subexperimento 1.\relax }{table.caption.84}{}}
\@writefile{lot}{\contentsline {table}{\numberline {13}{\ignorespaces p-valores obtidos ap\IeC {\'o}s os testes t pareado em rela\IeC {\c c}\IeC {\~a}o ao ganho absoluto de cada aluno no Subexperimento 1.\relax }}{91}{table.caption.85}\protected@file@percent }
\newlabel{tab:valor_p_testtsubexp1}{{\M@TitleReference {13}{p-valores obtidos ap\IeC {\'o}s os testes t pareado em rela\IeC {\c c}\IeC {\~a}o ao ganho absoluto de cada aluno no Subexperimento 1.\relax }}{91}{p-valores obtidos após os testes t pareado em relação ao ganho absoluto de cada aluno no Subexperimento 1.\relax }{table.caption.85}{}}
\@writefile{lot}{\contentsline {table}{\numberline {14}{\ignorespaces p-valores obtidos ap\IeC {\'o}s os testes de normalidade Kolmogorov-Smirnov em rela\IeC {\c c}\IeC {\~a}o as notas de cada aluno no Subexperimento 2.\relax }}{91}{table.caption.86}\protected@file@percent }
\newlabel{tab:valorpsubexp2}{{\M@TitleReference {14}{p-valores obtidos ap\IeC {\'o}s os testes de normalidade Kolmogorov-Smirnov em rela\IeC {\c c}\IeC {\~a}o as notas de cada aluno no Subexperimento 2.\relax }}{91}{p-valores obtidos após os testes de normalidade Kolmogorov-Smirnov em relação as notas de cada aluno no Subexperimento 2.\relax }{table.caption.86}{}}
\@writefile{lot}{\contentsline {table}{\numberline {15}{\ignorespaces p-valores obtidos ap\IeC {\'o}s os testes t pareado em rela\IeC {\c c}\IeC {\~a}o ao ganho absoluto de cada aluno no Subexperimento 2.\relax }}{91}{table.caption.87}\protected@file@percent }
\newlabel{tab:valor_p_testtsubexp2}{{\M@TitleReference {15}{p-valores obtidos ap\IeC {\'o}s os testes t pareado em rela\IeC {\c c}\IeC {\~a}o ao ganho absoluto de cada aluno no Subexperimento 2.\relax }}{91}{p-valores obtidos após os testes t pareado em relação ao ganho absoluto de cada aluno no Subexperimento 2.\relax }{table.caption.87}{}}
\@writefile{lot}{\contentsline {table}{\numberline {16}{\ignorespaces p-valores obtidos ap\IeC {\'o}s os testes de normalidade Kolmogorov-Smirnov em rela\IeC {\c c}\IeC {\~a}o as notas de cada aluno no Experimento.\relax }}{92}{table.caption.88}\protected@file@percent }
\newlabel{tab:valorpexp}{{\M@TitleReference {16}{p-valores obtidos ap\IeC {\'o}s os testes de normalidade Kolmogorov-Smirnov em rela\IeC {\c c}\IeC {\~a}o as notas de cada aluno no Experimento.\relax }}{92}{p-valores obtidos após os testes de normalidade Kolmogorov-Smirnov em relação as notas de cada aluno no Experimento.\relax }{table.caption.88}{}}
\@writefile{lot}{\contentsline {table}{\numberline {17}{\ignorespaces p-valores obtidos ap\IeC {\'o}s os testes t pareado em rela\IeC {\c c}\IeC {\~a}o ao ganho absoluto de cada aluno no Experimento.\relax }}{92}{table.caption.89}\protected@file@percent }
\newlabel{tab:valor_p_testtexp}{{\M@TitleReference {17}{p-valores obtidos ap\IeC {\'o}s os testes t pareado em rela\IeC {\c c}\IeC {\~a}o ao ganho absoluto de cada aluno no Experimento.\relax }}{92}{p-valores obtidos após os testes t pareado em relação ao ganho absoluto de cada aluno no Experimento.\relax }{table.caption.89}{}}
\newlabel{LastPage}{{}{92}{}{page.92}{}}
\xdef\lastpage@lastpage{92}
\xdef\lastpage@lastpageHy{92}
\bibstyle{abntex2-alf}
\memsetcounter{lastsheet}{93}
\memsetcounter{lastpage}{92}
